Time;current_position;driver_down;driver_information;driver_up;error_counter;move_down;move_up;obstacle_detection;passenger_down;passenger_up;vehicle_speed
0;0;0;0;0;0;0;0;0;0;0;20
1;0;1;2;0;2;0;0;0;1;1;31
2;0;1;2;1;1;0;0;0;0;1;0
3;0;0;2;0;2;0;0;0;1;1;30
4;0;1;2;1;1;0;0;1;1;0;31
5;1;0;0;1;0;0;1;0;0;1;30
6;2;0;0;1;0;0;1;0;1;0;30
7;1;1;1;0;0;1;0;0;1;0;31
8;1;0;1;0;0;0;0;0;0;0;31
