Time;current_position;driver_down;driver_information;driver_up;error_counter;move_down;move_up;obstacle_detection;passenger_down;passenger_up;vehicle_speed
0;0;0;0;0;0;0;0;0;0;0;20
1;0;0;1;0;0;0;1;0;0;1;31
2;0;1;2;1;2;0;0;0;1;1;0
3;0;0;0;1;0;0;0;1;1;0;30
4;0;0;1;1;0;0;0;1;1;0;31
5;0;1;2;1;1;0;0;0;0;0;0
6;0;1;2;1;2;0;0;0;1;1;31
7;0;0;1;0;0;0;0;1;0;1;31
8;0;1;2;1;2;0;0;0;1;1;0
