Time;current_position;driver_down;driver_information;driver_up;error_counter;move_down;move_up;obstacle_detection;passenger_down;passenger_up;vehicle_speed
0;0;0;0;0;0;0;0;0;0;0;20
1;0;0;0;0;0;0;0;0;1;0;30
2;0;0;1;0;0;0;0;0;1;0;31
3;0;1;2;1;2;0;0;0;1;1;31
4;1;0;1;1;0;0;1;0;0;0;31
5;1;1;2;1;2;0;0;0;1;1;31
6;1;0;1;0;0;0;0;0;1;0;31
7;1;1;2;1;2;0;0;0;1;1;31
8;1;1;2;1;2;0;0;0;1;1;31
