Time;current_position;driver_down;driver_information;driver_up;error_counter;move_down;move_up;obstacle_detection;passenger_down;passenger_up;vehicle_speed
0;0;0;0;0;0;0;0;0;0;0;20
1;0;1;1;0;0;1;0;0;0;1;31
2;1;0;1;1;0;0;1;0;0;1;31
3;1;1;2;1;1;0;0;1;1;0;31
4;2;0;1;1;0;0;1;0;1;0;31
5;2;0;2;0;1;0;0;0;1;1;31
6;1;1;1;0;0;1;0;1;1;0;31
7;2;0;1;1;0;0;1;0;0;0;31
8;1;1;0;0;0;1;0;0;0;1;19
9;1;0;2;0;1;0;0;1;1;1;31
10;2;0;0;0;0;0;1;0;0;1;21
11;1;0;1;0;0;1;0;1;1;0;31
