Time;current_position;driver_down;driver_information;driver_up;error_counter;move_down;move_up;obstacle_detection;passenger_down;passenger_up;vehicle_speed
0;0;0;0;0;0;0;0;0;0;0;20
1;0;1;1;0;0;1;0;0;1;0;31
2;1;0;1;1;0;0;1;0;0;1;31
3;1;0;2;0;1;0;0;1;1;1;19
4;2;0;1;1;0;0;1;0;0;1;31
5;2;1;2;1;2;0;0;0;1;1;31
6;3;0;0;1;0;0;1;0;0;1;30
7;3;0;2;0;1;0;0;0;1;1;31
8;3;0;1;1;0;0;0;1;0;1;31
9;2;1;0;0;0;1;0;0;0;0;30
10;2;1;2;1;2;0;0;0;1;1;30
11;3;0;1;1;0;0;1;0;0;1;31
