Time;current_position;driver_down;driver_information;driver_up;error_counter;move_down;move_up;obstacle_detection;passenger_down;passenger_up;vehicle_speed
0;0;0;0;0;0;0;0;0;0;0;20
1;0;0;0;0;0;1;0;1;1;0;19
2;1;0;1;0;0;0;1;0;0;1;31
3;1;1;2;1;1;0;0;0;0;1;21
4;2;0;1;1;0;0;1;0;0;1;31
5;1;1;0;0;0;1;0;1;0;0;30
6;2;0;1;1;0;0;1;0;1;0;31
7;2;0;2;0;1;0;0;0;1;1;31
8;3;0;1;1;0;0;1;0;0;0;31
9;2;1;0;0;0;1;0;0;0;0;19
10;1;0;0;0;0;1;0;1;1;0;30
11;0;1;1;0;0;1;0;0;0;0;31
