Time;current_position;driver_down;driver_information;driver_up;error_counter;move_down;move_up;obstacle_detection;passenger_down;passenger_up;vehicle_speed
0;0;0;0;0;0;0;0;0;0;0;20
1;0;0;1;0;0;1;0;0;1;0;31
2;0;1;2;1;1;0;0;1;0;0;31
3;1;0;0;0;0;0;1;0;0;1;19
4;0;1;1;0;0;1;0;1;0;0;31
5;1;0;0;0;0;0;1;0;0;1;30
6;1;0;2;0;1;0;0;0;1;1;31
7;1;1;2;1;1;0;0;0;0;0;30
8;1;0;2;0;1;0;0;0;1;1;31
9;1;0;2;0;1;0;0;0;1;1;31
10;1;1;2;1;1;0;0;0;0;0;30
11;1;1;2;1;2;0;0;0;1;1;31
