Time;current_position;driver_down;driver_information;driver_up;error_counter;move_down;move_up;obstacle_detection;passenger_down;passenger_up;vehicle_speed
0;0;0;0;0;0;0;0;0;0;0;20
1;0;0;2;0;1;0;0;0;1;1;31
2;1;0;0;1;0;0;1;0;0;1;30
3;0;1;0;0;0;1;0;1;0;1;19
4;1;0;1;0;0;0;1;0;0;1;31
5;2;0;0;0;0;0;1;0;0;1;30
6;3;0;0;0;0;0;1;0;0;1;30
7;3;0;1;0;0;0;0;1;0;1;31
8;4;0;1;1;0;0;1;0;0;1;31
9;5;0;1;0;0;0;1;0;0;1;31
10;6;0;1;0;0;0;1;0;0;1;31
11;5;1;1;0;0;1;0;0;0;0;31
