Time;the coffee machine output;the coffee request sensor;the coin sensor;the request timer;the system mode
0;0;0;0;1;1
1;0;0;1;0;0
2;0;0;0;1;0
3;0;1;0;0;3
4;0;1;0;1;3
5;0;0;0;2;3
6;0;0;0;3;3
7;0;0;0;4;3
8;0;0;1;5;3
9;0;0;0;6;3
10;0;0;0;7;3
11;0;0;0;8;3
12;0;0;0;9;3
13;0;0;0;10;3
14;1;0;0;11;1
15;1;0;1;0;0
16;1;0;1;1;0
17;1;0;0;2;0
18;1;0;0;3;0
19;1;0;0;4;0
20;1;0;0;5;0
21;1;0;0;6;0
22;1;0;0;7;0
23;1;0;0;8;0
24;1;0;0;9;0
25;1;0;0;10;0
26;1;0;0;11;0
27;1;0;0;12;0
28;1;0;0;13;0
29;1;0;0;14;0
30;1;0;0;15;0
31;1;0;0;16;0
32;1;0;0;17;0
33;1;0;0;18;0
34;1;0;0;19;0
35;1;0;0;20;0
36;1;0;0;21;0
37;1;0;0;22;0
38;1;0;0;23;0
39;1;0;0;24;0
40;1;0;0;25;0
41;1;0;0;26;0
42;1;0;0;27;0
43;1;0;0;28;0
44;1;0;0;29;0
45;1;0;0;30;0
46;1;0;0;31;0
47;1;1;0;59;0
48;1;0;0;60;0
49;1;1;0;58;0
50;1;1;0;59;0
51;1;0;0;60;0
52;1;1;0;29;2
53;1;0;1;30;2
54;0;0;0;31;1
55;0;0;0;32;1
