Time;the coffee machine output;the coffee request sensor;the coin sensor;the request timer;the system mode
0;0;0;0;1;1
1;0;0;1;0;0
2;0;0;0;1;0
3;0;1;0;0;3
4;0;1;0;1;3
5;0;0;0;2;3
6;0;0;0;3;3
7;0;1;0;4;3
8;0;0;0;5;3
9;0;0;0;6;3
10;0;0;0;7;3
11;0;0;0;8;3
12;0;0;0;9;3
13;0;0;0;10;3
14;1;0;0;11;1
15;1;0;1;0;0
16;1;0;0;1;0
17;1;1;0;0;3
18;1;0;0;1;3
19;1;0;0;2;3
20;1;0;0;3;3
21;1;0;0;4;3
22;1;0;0;5;3
23;1;0;0;6;3
24;1;0;0;7;3
25;1;0;0;8;3
26;1;0;0;9;3
27;1;1;0;10;3
28;1;0;0;11;1
29;1;0;0;12;1
30;1;0;0;13;1
31;1;0;1;0;0
32;1;0;0;1;0
33;1;0;0;2;0
34;1;0;0;3;0
