Time;emergency mode;the indication lights;the mode;the timer;the turn indicator lever;the voltage
0;0;2;2;1;0;0
1;0;2;3;0;2;80
2;0;2;3;1;0;80
3;1;2;0;0;0;100
4;1;2;3;0;2;80
5;0;2;3;1;0;80
6;0;2;3;22;0;100
7;1;3;0;0;2;81
8;1;0;1;0;1;81
9;1;2;0;0;0;80
10;0;0;0;0;0;81
11;0;0;3;0;2;81
12;0;2;3;0;2;80
13;0;1;3;34;0;100
14;0;2;1;0;1;81
15;1;1;0;0;1;81
16;0;0;0;0;0;81
17;1;0;0;0;0;81
18;1;0;3;0;2;81
