Time;emergency mode;the indication lights;the mode;the timer;the turn indicator lever;the voltage
0;0;2;2;1;0;0
1;0;2;3;0;2;81
2;0;2;1;0;1;100
3;0;2;3;0;2;80
4;0;2;3;0;0;100
5;0;2;1;0;1;81
6;1;1;0;0;0;81
7;0;0;3;0;2;81
8;0;2;1;0;1;81
9;0;2;3;0;2;80
10;0;1;1;0;1;81
11;0;1;3;0;2;81
12;0;0;3;0;0;81
13;0;2;3;0;0;80
14;0;2;1;0;1;81
15;0;1;3;0;2;81
16;0;1;3;-1;0;81
17;0;1;1;0;1;81
