Time;emergency mode;the indication lights;the mode;the timer;the turn indicator lever;the voltage
0;0;2;2;1;0;0
1;1;2;0;0;0;80
2;1;2;0;0;0;81
3;0;2;0;1;0;81
4;0;2;1;0;1;81
5;0;1;1;0;0;81
6;0;1;3;0;2;81
7;0;3;1;0;1;81
8;1;2;0;0;1;80
9;0;3;1;0;1;81
10;1;1;0;0;0;81
11;0;2;0;0;0;80
12;0;2;1;0;1;81
13;1;1;0;0;0;81
14;0;2;3;0;2;81
15;1;3;0;0;0;81
16;0;1;0;34;0;81
17;0;2;3;0;2;81
