Time;emergency mode;the indication lights;the mode;the timer;the turn indicator lever;the voltage
0;0;2;2;1;0;0
1;0;2;1;0;1;80
2;0;0;1;0;1;100
3;1;0;0;0;1;100
4;0;0;1;0;1;81
5;1;2;0;0;0;80
6;0;2;1;0;1;80
7;1;3;0;0;0;100
8;1;0;3;0;2;81
9;1;2;1;0;1;80
10;1;3;1;0;1;100
11;1;3;1;1;1;81
12;1;3;0;0;0;81
13;1;0;3;0;2;81
14;0;3;1;0;1;81
15;0;0;3;0;2;81
16;0;3;1;0;1;81
17;0;0;3;0;2;81
