Time;emergency mode;the indication lights;the mode;the timer;the turn indicator lever;the voltage
0;0;2;2;1;0;0
1;1;2;0;0;1;81
2;0;2;0;0;0;80
3;0;2;3;0;2;100
4;0;3;1;0;1;81
5;1;1;0;0;2;81
6;1;2;0;0;2;80
7;0;1;3;0;2;100
8;0;3;3;0;0;81
9;0;3;3;0;2;81
10;0;3;1;0;1;81
11;1;1;0;0;0;81
12;1;2;0;0;0;80
13;1;3;3;0;2;100
14;0;3;1;0;1;81
15;0;1;1;0;1;81
16;0;1;1;1;0;81
17;0;2;1;0;0;80
18;0;1;3;0;2;81
