Time;emergency mode;the indication lights;the mode;the timer;the turn indicator lever;the voltage
0;0;2;2;1;0;0
1;0;2;1;0;1;100
2;0;2;1;0;0;80
3;0;3;1;0;1;100
4;0;2;1;0;1;80
5;0;0;1;0;1;100
6;0;0;3;0;2;100
7;0;3;3;0;2;81
8;0;2;1;0;1;80
9;0;0;3;0;2;81
10;0;3;1;0;1;81
11;1;0;0;0;2;81
12;0;0;1;0;1;81
13;0;3;3;0;2;81
14;0;2;1;0;1;80
15;0;2;1;1;1;80
16;0;2;1;22;1;100
17;0;1;3;0;2;81
18;0;2;3;0;0;80
