Time;emergency mode;the indication lights;the mode;the timer;the turn indicator lever;the voltage
0;0;2;2;1;0;0
1;1;2;0;0;2;81
2;0;3;3;0;2;80
3;0;3;3;0;2;81
4;0;3;1;0;1;81
5;0;1;3;0;2;81
6;0;1;1;0;1;80
7;0;1;3;0;2;0
8;1;3;0;0;2;81
9;0;3;1;0;1;80
10;0;3;3;0;2;80
11;0;3;1;0;1;81
12;0;0;3;0;2;80
13;0;3;1;0;1;81
14;1;1;0;0;1;81
15;0;0;3;0;2;81
16;0;3;1;0;1;81
17;0;1;3;0;2;81
