Time;emergency mode;the indication lights;the mode;the timer;the turn indicator lever;the voltage
0;0;2;2;1;0;0
1;0;2;1;0;1;81
2;0;2;1;0;1;81
3;0;2;3;0;2;81
4;0;3;1;0;1;81
5;1;2;0;0;0;81
6;0;0;0;0;0;81
7;0;2;0;0;0;80
8;0;0;1;0;1;81
9;1;2;0;0;0;81
10;0;2;3;0;2;80
11;1;2;0;0;0;80
12;0;2;0;1;0;80
13;0;2;0;2;0;80
14;0;2;1;0;1;80
15;0;2;1;14;0;81
16;0;2;1;15;0;81
17;0;2;1;16;0;81
