Time;emergency mode;the indication lights;the mode;the timer;the turn indicator lever;the voltage
0;0;2;2;1;0;0
1;0;2;1;0;1;80
2;0;2;1;1;0;80
3;0;2;1;2;0;80
4;0;2;1;3;0;80
5;0;2;1;4;0;80
6;0;2;1;5;0;80
7;0;2;1;6;0;80
8;0;2;1;7;0;80
9;0;2;1;8;0;80
10;0;2;1;9;0;80
11;0;2;1;10;0;80
12;0;2;1;11;0;80
13;0;2;1;12;0;80
14;0;2;1;13;0;80
15;0;2;1;14;0;80
16;0;2;1;15;0;80
17;0;2;1;16;0;80
18;0;2;1;17;0;80
19;0;2;1;18;0;80
20;0;2;1;19;0;80
21;0;2;1;20;0;80
22;0;2;1;21;0;80
23;0;2;1;22;0;80
24;0;1;3;0;2;81
25;1;2;0;0;0;80
26;1;2;0;1;0;80
27;1;2;0;2;0;80
28;1;2;0;3;0;80
29;1;2;0;4;0;80
30;1;2;0;5;0;80
31;1;2;0;6;0;80
32;1;2;0;7;0;80
33;1;2;0;8;0;80
34;1;2;0;9;0;80
35;1;2;0;10;0;80
36;1;2;0;11;0;80
37;1;2;0;12;0;80
38;1;2;0;13;0;80
39;1;2;0;14;0;80
40;1;2;0;15;0;80
41;1;2;0;16;0;80
42;1;2;0;17;0;80
43;1;2;0;18;0;80
44;1;2;0;19;0;80
45;1;2;0;20;0;80
46;1;2;0;21;0;80
47;1;2;0;22;0;80
48;1;0;3;0;2;81
49;1;3;1;0;1;81
50;1;1;0;0;0;81
51;0;0;0;0;0;81
52;1;0;0;0;1;81
53;0;0;1;0;1;81
54;0;2;1;0;0;80
55;0;2;1;1;0;80
56;0;2;1;2;0;80
57;0;2;1;3;0;80
58;0;2;1;4;0;80
59;0;2;1;5;0;80
60;0;2;1;6;0;80
61;0;2;3;0;2;80
62;0;3;3;0;2;81
63;1;2;0;0;2;80
