Time;emergency mode;the indication lights;the mode;the timer;the turn indicator lever;the voltage
0;0;2;2;1;0;0
1;0;2;3;0;2;80
2;0;2;3;1;2;80
3;0;2;3;2;2;80
4;0;2;3;3;2;80
5;0;2;3;4;2;80
6;0;2;3;5;2;80
7;0;2;3;6;2;80
8;0;2;3;7;2;80
9;0;2;3;8;2;80
10;0;2;3;9;0;80
11;0;2;3;10;0;80
12;0;2;3;11;0;80
13;0;2;3;12;0;80
14;0;2;3;13;0;80
15;0;2;3;14;0;80
16;0;2;3;15;0;80
17;0;2;3;16;0;80
18;0;2;3;17;0;80
19;0;2;3;18;0;80
20;0;2;3;19;0;80
21;0;2;3;20;0;80
22;0;2;3;21;0;80
23;0;2;3;22;0;80
24;1;3;0;0;1;81
25;0;0;3;0;2;81
26;1;3;0;0;0;81
27;1;0;1;0;1;81
28;1;1;0;0;0;81
29;0;0;1;0;1;81
30;1;2;0;0;0;80
31;0;2;0;1;0;80
32;0;0;1;0;1;81
33;0;1;3;0;2;81
34;1;3;0;0;1;81
35;1;2;0;0;1;80
36;1;2;0;1;1;80
37;0;2;0;2;0;80
38;0;0;3;0;2;81
39;0;2;3;0;0;80
