Time;emergency mode;the indication lights;the mode;the timer;the turn indicator lever;the voltage
0;0;2;2;1;0;0
1;1;2;0;0;0;81
2;1;2;3;0;2;80
3;1;3;0;0;0;81
4;0;2;1;0;1;80
5;1;1;0;0;2;81
6;0;0;3;0;2;81
7;0;3;1;0;1;81
8;0;1;3;0;2;81
9;0;3;1;0;1;81
10;1;1;0;0;2;81
11;0;2;3;0;2;80
12;0;3;1;0;1;81
13;0;2;3;0;2;80
14;0;3;1;0;1;81
15;1;1;0;0;0;81
16;1;0;3;0;2;81
17;1;3;0;0;0;81
18;0;2;1;0;1;80
