Time;emergency mode;the indication lights;the mode;the timer;the turn indicator lever;the voltage
0;0;2;2;1;0;0
1;1;2;0;0;2;81
2;1;0;1;0;1;81
3;0;2;1;0;1;80
4;1;1;0;0;2;81
5;0;2;3;0;2;80
6;1;2;0;0;2;80
7;0;2;3;0;2;80
8;0;3;1;0;1;81
9;1;1;0;0;2;81
10;0;2;3;0;2;80
11;1;2;0;0;2;80
12;1;0;1;0;1;81
13;1;1;3;0;2;81
14;1;3;0;0;0;81
15;0;2;0;0;0;80
16;1;0;0;0;1;81
17;0;2;1;0;1;80
18;1;1;0;0;1;81
19;0;2;1;0;1;80
20;0;1;3;0;2;81
