Time;emergency mode;the indication lights;the mode;the timer;the turn indicator lever;the voltage
0;0;2;2;1;0;0
1;0;2;3;0;2;80
2;1;3;0;0;1;81
3;0;0;1;0;1;81
4;1;2;0;0;1;80
5;0;2;1;0;1;80
6;0;2;3;0;2;80
7;0;3;1;0;1;81
8;0;1;3;0;2;81
9;0;3;1;0;1;81
10;1;2;0;0;2;80
11;1;0;1;0;1;81
12;1;1;3;0;2;81
13;1;3;0;0;0;81
14;0;0;3;0;2;81
15;0;3;1;0;1;81
16;1;1;0;0;2;81
17;0;2;3;0;2;80
