Time;emergency mode;the indication lights;the mode;the timer;the turn indicator lever;the voltage
0;0;2;2;1;0;0
1;0;2;3;0;2;80
2;0;2;3;1;0;80
3;1;3;0;0;1;100
4;0;2;1;0;1;80
5;0;2;3;0;2;80
6;0;3;3;0;0;100
7;0;2;3;0;0;80
8;0;2;1;0;1;80
9;0;2;3;0;2;80
10;0;2;1;0;1;80
11;0;2;3;0;2;80
12;0;2;1;0;1;80
13;1;1;0;0;2;100
14;0;0;3;0;2;100
15;0;3;1;0;1;100
16;0;1;3;0;2;100
17;1;3;0;0;1;100
18;0;0;1;0;1;100
19;1;2;0;0;1;80
