Time;emergency mode;the indication lights;the mode;the timer;the turn indicator lever;the voltage
0;0;2;2;1;0;0
1;1;2;0;0;0;81
2;0;0;3;0;2;81
3;1;2;0;0;2;80
4;0;2;0;1;0;80
5;0;0;1;0;1;81
6;0;2;1;0;1;80
7;1;1;0;0;1;81
8;0;0;1;0;1;81
9;0;1;1;0;1;81
10;1;1;0;0;2;81
11;1;2;0;0;2;80
12;1;2;0;1;2;80
13;0;0;3;0;2;81
14;1;3;0;0;0;81
15;1;0;1;0;1;81
16;0;1;3;0;2;81
17;0;3;1;0;1;81
18;0;1;3;0;2;81
19;0;3;1;0;1;81
20;0;1;1;0;0;81
