Time;emergency mode;the indication lights;the mode;the timer;the turn indicator lever;the voltage
0;0;2;2;1;0;0
1;0;2;1;0;1;80
2;1;1;0;0;0;81
3;1;0;1;0;1;81
4;0;1;1;0;1;81
5;1;1;0;0;0;81
6;0;0;0;0;0;81
7;0;0;1;0;1;81
8;0;2;1;0;0;80
9;0;1;1;0;0;81
10;0;1;3;0;2;81
11;1;3;0;0;2;81
12;1;2;1;0;1;80
13;0;2;1;1;0;80
14;1;1;0;0;1;81
15;0;0;1;0;1;81
16;0;2;1;0;0;80
17;0;1;1;0;1;81
18;1;1;0;0;2;81
19;0;0;1;0;1;81
