Time;emergency mode;the indication lights;the mode;the timer;the turn indicator lever;the voltage
0;0;2;2;1;0;0
1;1;2;0;0;1;80
2;1;0;3;0;2;81
3;1;3;0;0;0;81
4;1;2;3;0;2;80
5;1;3;0;0;0;81
6;1;2;1;0;1;80
7;1;2;0;0;0;80
8;1;2;0;1;0;80
9;1;0;3;0;2;81
10;1;2;0;0;0;80
11;0;0;0;0;0;81
12;1;0;0;0;0;81
13;1;2;3;0;2;80
14;0;2;1;0;1;80
15;1;1;0;0;1;81
16;1;0;3;0;2;81
17;1;3;3;0;2;81
18;1;3;3;1;2;81
