Time;emergency mode;the indication lights;the mode;the timer;the turn indicator lever;the voltage
0;0;2;2;1;0;0
1;0;2;1;0;1;80
2;0;2;1;1;1;80
3;0;2;1;2;1;80
4;0;2;1;3;1;80
5;0;2;1;4;1;80
6;0;2;1;5;1;80
7;0;2;1;6;1;80
8;0;2;1;7;1;80
9;0;2;1;8;1;80
10;0;2;1;9;1;80
11;0;2;1;10;1;80
12;0;2;1;11;1;80
13;0;2;1;12;1;80
14;0;2;1;13;1;80
15;0;2;1;14;1;80
16;0;2;1;15;1;80
17;0;2;1;16;1;80
18;0;2;1;17;1;80
19;0;2;1;18;1;80
20;0;2;1;19;1;80
21;0;2;1;20;1;80
22;0;2;1;21;1;80
23;0;2;1;22;0;80
24;0;1;3;0;2;81
25;0;2;1;0;1;80
26;0;2;1;1;1;80
27;0;2;1;2;1;80
28;0;2;1;3;1;80
29;0;2;1;4;1;80
30;0;2;1;5;1;80
31;0;2;1;6;1;80
32;0;2;1;7;1;80
33;0;2;1;8;1;80
34;0;2;1;9;1;80
35;0;2;1;10;1;80
36;0;2;1;11;1;80
37;0;2;1;12;1;80
38;0;2;1;13;1;80
39;0;2;1;14;1;80
40;0;2;1;15;1;80
41;0;2;1;16;1;80
42;0;2;1;17;0;80
43;0;2;1;18;0;80
44;0;2;1;19;0;80
45;0;2;1;20;0;80
46;0;2;1;21;0;80
47;0;2;1;22;0;80
48;0;1;3;0;2;81
49;0;3;3;0;0;81
50;1;3;0;0;1;81
51;0;2;3;0;2;80
52;0;3;1;0;1;81
53;1;2;0;0;1;80
54;1;2;3;0;2;80
55;1;3;1;0;1;81
56;1;2;0;0;0;80
57;1;0;0;0;0;81
58;1;0;0;1;0;81
59;1;2;0;0;0;80
60;0;0;0;0;0;81
61;0;0;0;1;0;81
62;0;0;0;2;0;81
63;0;0;1;0;1;81
