Time;emergency mode;the indication lights;the mode;the timer;the turn indicator lever;the voltage
0;0;2;2;1;0;0
1;0;2;1;0;1;81
2;0;1;1;0;0;81
3;0;2;1;0;1;80
4;0;1;1;0;1;81
5;0;1;1;1;1;81
6;0;2;1;0;1;80
7;1;1;0;0;2;81
8;1;0;0;0;2;81
9;0;0;3;0;2;81
10;1;3;0;0;1;81
11;0;0;1;0;1;81
12;0;1;3;0;2;81
13;0;3;1;0;1;81
14;0;1;3;0;2;81
15;1;3;0;0;1;81
16;0;0;1;0;1;81
17;0;2;3;0;2;80
18;1;3;0;0;2;81
