Time;emergency mode;the indication lights;the mode;the timer;the turn indicator lever;the voltage
0;0;2;2;1;0;0
1;1;2;0;0;2;81
2;0;0;3;0;2;81
3;0;2;3;0;0;80
4;0;3;1;0;1;81
5;1;2;0;0;2;80
6;0;0;3;0;2;81
7;0;2;3;0;2;80
8;0;3;3;0;0;81
9;0;2;3;0;0;80
10;0;3;1;0;1;81
11;0;2;3;0;2;80
12;1;3;0;0;1;81
13;0;0;3;0;2;81
14;0;3;1;0;1;81
15;0;1;3;0;2;81
16;0;2;1;0;1;80
17;0;1;3;0;2;81
18;0;3;1;0;1;81
