Time;emergency mode;the indication lights;the mode;the timer;the turn indicator lever;the voltage
0;0;2;2;1;0;0
1;0;2;1;0;1;81
2;1;1;0;0;1;81
3;1;0;3;0;2;81
4;1;3;3;0;2;81
5;1;3;1;0;1;81
6;1;1;1;0;1;81
7;1;1;3;0;2;81
8;1;3;0;0;0;81
9;0;0;0;0;0;81
10;1;0;0;0;0;81
11;1;0;3;0;2;81
12;0;3;1;0;1;81
13;1;1;0;0;1;81
14;0;2;1;0;1;80
15;0;1;1;0;1;81
16;1;1;0;0;0;81
17;0;0;3;0;2;81
18;0;3;1;0;1;81
