Time;emergency mode;the indication lights;the mode;the timer;the turn indicator lever;the voltage
0;0;2;2;1;0;0
1;0;2;1;0;1;80
2;0;2;1;1;1;80
3;0;2;1;2;1;80
4;0;2;1;3;0;80
5;0;2;1;4;0;80
6;0;2;1;5;0;80
7;0;2;1;6;0;80
8;0;2;1;7;0;80
9;0;2;1;8;0;80
10;0;2;1;9;0;80
11;0;2;1;10;0;80
12;0;2;1;11;0;80
13;0;2;1;12;0;80
14;0;2;1;13;0;80
15;0;2;1;14;0;80
16;0;2;1;15;0;80
17;0;2;1;16;0;80
18;0;2;1;17;0;80
19;0;2;1;18;0;80
20;0;2;1;19;0;80
21;0;2;1;20;0;80
22;0;2;1;21;0;80
23;0;2;1;22;0;80
24;0;1;1;0;0;81
25;0;1;1;1;0;81
26;0;1;1;2;0;81
27;0;1;1;3;0;81
28;0;1;1;4;0;81
29;0;1;1;5;0;81
30;0;1;1;6;0;81
31;0;1;1;7;0;81
32;0;1;1;8;0;81
33;0;1;1;9;0;81
34;0;1;1;10;0;81
35;0;1;1;11;0;81
36;0;1;1;12;0;81
37;0;1;1;13;0;81
38;0;1;1;14;0;81
39;0;1;1;15;0;81
40;0;1;1;16;0;81
41;0;1;1;17;0;81
42;0;1;1;18;0;81
43;0;1;1;19;0;81
44;0;1;1;20;0;81
45;0;1;1;21;0;81
46;0;1;1;22;0;81
47;0;1;1;23;0;81
48;0;1;1;24;0;81
49;0;1;1;25;0;81
50;0;1;1;26;0;81
51;0;1;1;27;0;81
52;0;1;1;28;0;81
53;0;1;1;29;0;81
54;0;1;1;30;0;81
55;0;1;1;31;0;81
56;0;1;1;32;0;81
57;0;1;1;33;0;81
58;0;1;1;34;0;81
59;0;2;1;0;0;81
60;0;2;1;1;0;81
61;0;2;3;0;2;81
62;0;3;1;0;1;81
63;1;1;0;0;0;81
64;1;0;3;0;2;81
65;1;3;1;0;1;81
66;1;1;3;0;2;81
67;1;3;3;0;2;81
68;0;3;1;0;1;81
69;1;1;0;0;0;81
70;0;0;0;0;0;81
71;0;0;1;0;1;81
72;1;2;0;0;0;80
73;1;2;0;1;0;80
74;1;2;0;2;0;80
