Time;emergency mode;the indication lights;the mode;the timer;the turn indicator lever;the voltage
0;0;2;2;1;0;0
1;0;2;2;2;0;80
2;1;2;0;0;1;81
3;0;0;3;0;2;81
4;1;3;0;0;2;100
5;1;0;1;0;1;100
6;1;1;1;0;1;100
7;1;1;3;0;2;81
8;1;3;3;0;2;100
9;0;2;3;0;0;80
10;0;3;1;0;1;100
11;0;1;1;0;0;81
12;0;2;1;0;0;80
13;0;1;1;0;0;81
14;0;2;1;0;0;80
15;0;2;1;1;0;80
16;1;2;0;0;0;80
17;1;0;3;0;2;81
18;1;2;0;0;0;80
19;0;2;3;0;2;80
