Time;emergency mode;the indication lights;the mode;the timer;the turn indicator lever;the voltage
0;0;2;2;1;0;0
1;0;2;3;0;2;81
2;1;3;0;0;1;81
3;1;0;3;0;2;81
4;1;3;1;0;1;81
5;0;1;3;0;2;81
6;1;3;0;0;1;81
7;1;0;3;0;2;81
8;0;3;1;0;1;81
9;1;1;0;0;1;81
10;0;0;1;0;1;81
11;0;2;1;0;0;80
12;0;1;3;0;2;81
13;1;3;0;0;2;81
14;0;0;3;0;2;81
15;0;3;3;0;0;81
16;0;3;1;0;1;81
17;0;1;3;0;2;81
18;0;3;1;0;1;81
