Time;emergency mode;the indication lights;the mode;the timer;the turn indicator lever;the voltage
0;0;2;2;1;0;0
1;0;2;1;0;1;80
2;0;2;1;1;1;80
3;0;2;1;2;1;80
4;0;2;1;3;1;80
5;0;2;1;4;1;80
6;0;2;1;5;1;80
7;0;2;1;6;1;80
8;0;2;1;7;1;80
9;0;2;1;8;1;80
10;0;2;1;9;1;80
11;0;2;1;10;1;80
12;0;2;1;11;1;80
13;0;2;1;12;1;80
14;0;2;1;13;1;80
15;0;2;1;14;1;80
16;0;2;1;15;1;80
17;0;2;1;16;1;80
18;0;2;1;17;1;80
19;0;2;1;18;1;80
20;0;2;1;19;1;80
21;0;2;1;20;1;80
22;0;2;1;21;1;80
23;0;2;1;22;1;80
24;1;1;0;0;1;81
25;0;0;1;0;1;81
26;1;1;0;0;1;81
27;0;0;1;0;1;81
28;1;1;0;0;1;81
29;0;0;3;0;2;81
30;1;3;0;0;2;81
31;0;0;3;0;2;81
32;1;3;0;0;1;81
33;0;0;1;0;1;81
34;1;1;0;0;1;81
35;0;0;1;0;1;81
36;0;1;3;0;2;81
37;1;3;0;0;2;81
38;0;0;0;0;0;81
39;0;2;1;0;1;80
40;1;1;0;0;1;81
