Time;emergency mode;the indication lights;the mode;the timer;the turn indicator lever;the voltage
0;0;2;2;1;0;0
1;1;2;0;0;0;81
2;1;0;1;0;1;81
3;1;1;0;0;0;81
4;1;2;1;0;1;80
5;1;1;3;0;2;81
6;1;3;1;0;1;81
7;0;1;3;0;2;81
8;0;2;3;0;0;80
9;0;3;3;0;0;81
10;0;2;1;0;1;80
11;0;1;3;0;2;81
12;1;2;0;0;1;80
13;1;2;0;1;1;80
14;1;0;3;0;2;81
15;1;2;0;0;0;80
16;1;2;1;0;1;80
17;1;1;1;0;1;81
18;1;2;1;0;1;80
