Time;emergency mode;the indication lights;the mode;the timer;the turn indicator lever;the voltage
0;0;2;2;1;0;0
1;0;2;2;2;0;80
2;0;2;3;0;2;81
3;1;3;0;0;1;81
4;0;2;0;0;0;80
5;1;0;0;0;0;81
6;0;2;0;0;0;80
7;0;0;0;0;0;81
8;0;0;1;0;1;81
9;0;1;3;0;2;81
10;0;3;3;0;2;81
11;0;2;1;0;1;80
12;0;2;3;0;2;80
13;1;3;0;0;1;81
14;0;0;1;0;1;81
15;0;1;3;0;2;81
16;0;3;1;0;1;81
17;1;1;0;0;0;81
18;1;2;1;0;1;80
19;0;2;3;0;2;80
