Time;emergency mode;the indication lights;the mode;the timer;the turn indicator lever;the voltage
0;0;2;2;1;0;0
1;0;2;3;0;2;80
2;0;2;3;1;0;80
3;0;2;3;2;0;80
4;0;2;3;3;0;80
5;0;2;3;4;0;80
6;0;2;3;5;0;80
7;0;2;3;6;0;80
8;0;2;3;7;0;80
9;0;2;3;8;0;80
10;0;2;3;9;0;80
11;0;2;3;10;0;80
12;0;2;3;11;0;80
13;0;2;3;12;0;80
14;0;2;3;13;0;80
15;0;2;3;14;0;80
16;0;2;3;15;0;80
17;0;2;3;16;0;80
18;0;2;3;17;0;80
19;0;2;3;18;0;80
20;0;2;3;19;0;80
21;0;2;3;20;0;80
22;0;2;3;21;0;80
23;0;2;3;22;0;80
24;1;3;0;0;0;81
25;0;2;1;0;1;80
26;0;2;1;1;1;80
27;0;2;1;2;1;80
28;0;2;1;3;1;80
29;0;2;1;4;1;80
30;0;2;1;5;0;80
31;0;2;1;6;0;80
32;0;2;1;7;0;80
33;0;2;1;8;0;80
34;0;2;1;9;0;80
35;0;2;1;10;0;80
36;0;2;1;11;0;80
37;0;2;1;12;0;80
38;0;2;1;13;0;80
39;0;2;1;14;0;80
40;0;2;1;15;0;80
41;0;2;1;16;0;80
42;0;2;1;17;0;80
43;0;2;1;18;0;80
44;0;2;1;19;0;80
45;0;2;1;20;0;80
46;0;2;1;21;0;80
47;0;2;1;22;0;80
48;1;1;0;0;1;81
49;0;0;1;0;1;81
50;1;1;0;0;1;81
51;0;2;3;0;2;80
52;0;2;3;1;2;80
53;1;3;0;0;2;81
54;0;2;3;0;2;80
55;0;2;3;1;2;80
56;0;3;1;0;1;81
57;1;1;0;0;2;81
58;0;0;3;0;2;81
59;1;3;0;0;0;81
60;0;0;1;0;1;81
61;0;1;1;0;1;81
62;1;2;0;0;2;80
63;1;0;1;0;1;81
