Time;emergency mode;the indication lights;the mode;the timer;the turn indicator lever;the voltage
0;0;2;2;1;0;0
1;0;2;3;0;2;81
2;1;2;0;0;0;80
3;0;0;0;0;0;81
4;0;0;3;0;2;81
5;0;2;3;0;0;80
6;0;3;3;0;0;81
7;0;2;3;0;0;80
8;0;3;3;0;0;81
9;1;3;0;0;0;81
10;0;0;0;0;0;81
11;0;2;0;0;0;80
12;1;0;0;0;0;81
13;0;2;0;0;0;80
14;1;0;0;0;0;81
15;0;2;0;0;0;80
16;0;0;0;0;0;81
17;0;2;0;0;0;80
