Time;emergency mode;the indication lights;the mode;the timer;the turn indicator lever;the voltage
0;0;2;2;1;0;0
1;1;2;0;0;1;81
2;0;2;1;0;1;80
3;1;1;0;0;2;81
4;0;2;3;0;2;80
5;0;2;1;0;1;80
6;0;2;1;1;0;80
7;0;1;1;0;1;81
8;0;2;3;0;2;80
9;0;3;1;0;1;81
10;0;1;3;0;2;81
11;0;2;1;0;1;80
12;1;2;0;0;2;80
13;0;0;3;0;2;81
14;1;3;0;0;1;81
15;0;0;1;0;1;81
16;1;2;0;0;1;80
17;0;0;1;0;1;81
18;0;2;3;0;2;80
19;0;3;1;0;1;81
