Time;emergency mode;the indication lights;the mode;the timer;the turn indicator lever;the voltage
0;0;2;2;1;0;0
1;1;2;0;0;0;80
2;1;0;3;0;2;81
3;1;3;1;0;1;81
4;1;1;0;0;0;81
5;1;2;3;0;2;80
6;1;3;0;0;0;81
7;1;0;0;0;0;81
8;1;0;1;0;1;81
9;1;1;3;0;2;81
10;0;3;3;0;0;81
11;0;2;3;0;2;80
12;0;3;3;0;2;81
13;0;2;3;0;0;80
14;0;3;3;0;2;81
15;0;2;3;0;2;80
16;1;3;0;0;2;81
17;1;2;0;0;0;80
18;1;0;3;0;2;81
19;0;3;3;0;0;81
