Time;emergency mode;the indication lights;the mode;the timer;the turn indicator lever;the voltage
0;0;2;2;1;0;0
1;0;2;3;0;2;80
2;0;2;3;1;0;80
3;1;3;0;0;0;81
4;0;2;1;0;1;79
5;0;1;3;0;2;81
6;0;3;3;0;0;81
7;0;3;3;0;2;81
8;0;3;3;1;0;81
9;0;3;3;2;0;81
10;1;3;0;0;2;81
11;0;0;3;0;2;81
12;1;3;0;0;0;81
13;0;0;0;0;0;81
14;0;0;0;1;0;81
15;0;2;0;0;0;80
16;1;2;0;0;2;80
17;0;0;3;0;2;81
18;1;3;0;0;0;81
19;0;0;3;0;2;81
