Time;emergency mode;the indication lights;the mode;the timer;the turn indicator lever;the voltage
0;0;2;2;1;0;0
1;1;2;0;0;2;81
2;0;0;3;0;2;81
3;1;3;0;0;2;81
4;0;0;3;0;2;81
5;1;3;0;0;2;81
6;0;0;3;0;2;81
7;0;3;1;0;1;81
8;1;1;0;0;2;81
9;0;0;3;0;2;81
10;1;3;0;0;0;81
11;0;2;1;0;1;80
12;0;1;1;0;0;81
13;0;2;1;0;0;80
14;0;1;1;0;1;81
15;1;2;0;0;1;80
16;0;0;1;0;1;81
17;1;1;0;0;2;81
18;0;2;3;0;2;80
