Time;emergency mode;the indication lights;the mode;the timer;the turn indicator lever;the voltage
0;0;2;2;1;0;0
1;1;2;0;0;2;81
2;1;0;1;0;1;81
3;1;1;0;0;0;81
4;1;2;0;0;0;80
5;0;0;3;0;2;81
6;0;2;1;0;1;80
7;1;1;0;0;1;81
8;1;2;3;0;2;80
9;1;3;3;0;2;81
10;1;2;1;0;1;80
11;1;1;3;0;2;81
12;1;2;0;0;0;80
13;0;2;1;0;1;80
14;1;2;0;0;2;80
15;0;0;3;0;2;81
16;0;2;3;0;0;80
17;0;2;1;0;1;80
18;0;1;3;0;2;81
19;1;3;0;0;0;81
