Time;emergency mode;the indication lights;the mode;the timer;the turn indicator lever;the voltage
0;0;2;2;1;0;0
1;1;2;0;0;1;80
2;1;0;0;0;1;81
3;0;0;3;0;2;81
4;0;3;1;0;1;81
5;0;1;3;0;2;81
6;0;3;3;0;2;81
7;0;2;1;0;1;80
8;0;1;3;0;2;81
9;1;2;0;0;2;80
10;0;0;3;0;2;81
11;0;3;1;0;1;81
12;0;1;3;0;2;81
13;1;2;0;0;2;80
14;0;0;3;0;2;81
15;1;2;0;0;2;80
16;0;2;1;0;1;80
17;0;1;3;0;2;81
