Time;emergency mode;the indication lights;the mode;the timer;the turn indicator lever;the voltage
0;0;2;2;1;0;0
1;0;2;2;2;0;80
2;1;2;0;0;1;81
3;0;0;1;0;1;81
4;0;2;1;0;1;80
5;0;1;3;0;2;100
6;0;3;1;0;1;81
7;0;1;1;0;0;81
8;0;2;1;0;0;0
9;0;1;1;0;0;100
10;1;1;0;0;0;81
11;0;0;0;0;0;81
12;0;2;0;0;0;80
13;0;0;0;0;0;81
14;0;2;0;0;0;80
15;0;0;3;0;2;81
16;0;2;3;0;0;80
17;0;3;1;0;1;81
18;1;2;0;0;1;80
19;0;0;1;0;1;81
20;0;2;1;0;0;80
