Time;emergency mode;the indication lights;the mode;the timer;the turn indicator lever;the voltage
0;0;2;2;1;0;0
1;0;2;2;2;0;80
2;1;2;0;0;1;81
3;0;0;3;0;2;81
4;0;2;1;0;1;80
5;0;1;3;0;2;100
6;1;3;0;0;1;100
7;0;0;1;0;1;100
8;0;2;3;0;2;80
9;0;2;1;0;1;80
10;0;2;1;1;1;80
11;0;1;3;0;2;100
12;1;3;0;0;1;81
13;0;0;1;0;1;81
14;0;1;1;0;0;81
15;1;1;0;0;0;81
16;0;2;3;0;2;80
17;1;3;0;0;2;81
18;0;0;3;0;2;81
19;0;2;3;0;0;80
20;0;2;3;1;0;80
