Time;emergency mode;the indication lights;the mode;the timer;the turn indicator lever;the voltage
0;0;2;2;1;0;0
1;1;2;0;0;2;80
2;1;2;1;0;1;80
3;1;2;0;0;0;80
4;0;2;3;0;2;80
5;0;3;3;0;2;81
6;0;3;1;0;1;81
7;1;2;0;0;2;80
8;0;0;3;0;2;81
9;1;3;0;0;1;81
10;1;0;3;0;2;81
11;1;2;1;0;1;80
12;0;1;1;0;0;81
13;1;2;0;0;2;80
14;1;0;1;0;1;81
15;0;1;1;0;0;81
16;0;2;3;0;2;80
17;1;3;0;0;2;81
18;0;0;3;0;2;81
19;0;2;3;0;0;80
