Time;emergency mode;the indication lights;the mode;the timer;the turn indicator lever;the voltage
0;0;2;2;1;0;0
1;1;2;0;0;0;80
2;1;0;3;0;2;81
3;1;3;0;0;0;81
4;0;2;3;0;2;0
5;1;3;0;0;1;81
6;1;0;0;0;0;81
7;1;2;0;0;0;80
8;0;0;0;0;0;81
9;0;2;0;0;0;80
10;0;0;0;0;0;81
11;0;2;0;0;0;80
12;0;0;3;0;2;81
13;0;3;3;0;2;81
14;1;3;0;0;1;81
15;0;0;0;0;0;81
16;0;0;0;1;0;81
17;0;0;0;2;0;81
18;0;0;0;3;0;81
19;0;0;0;4;0;81
20;0;0;0;5;0;81
