Time;emergency mode;the indication lights;the mode;the timer;the turn indicator lever;the voltage
0;0;2;2;1;0;0
1;1;2;0;0;1;81
2;0;2;1;0;1;80
3;1;2;0;0;0;80
4;1;0;1;0;1;81
5;1;2;0;0;0;80
6;1;0;3;0;2;81
7;1;2;0;0;0;80
8;1;2;0;1;0;80
9;0;0;1;0;1;81
10;0;1;3;0;2;81
11;1;3;0;0;2;81
12;0;2;0;0;0;80
13;0;0;0;0;0;81
14;0;0;1;0;1;81
15;0;1;3;0;2;81
16;0;2;1;0;1;80
17;0;1;3;0;2;81
18;0;2;1;0;1;80
19;1;2;0;0;2;80
20;0;2;3;0;2;80
