Time;emergency mode;the indication lights;the mode;the timer;the turn indicator lever;the voltage
0;0;2;2;1;0;0
1;1;2;0;0;0;81
2;1;0;3;0;2;81
3;1;2;0;0;0;80
4;1;2;3;0;2;80
5;0;2;1;0;1;80
6;1;2;0;0;1;80
7;0;0;3;0;2;81
8;0;2;3;0;0;80
9;0;3;3;0;2;81
10;1;3;0;0;2;81
11;0;0;3;0;2;81
12;1;3;0;0;2;81
13;1;0;0;0;0;81
14;1;0;3;0;2;81
15;1;3;0;0;0;81
16;1;2;3;0;2;80
17;1;3;1;0;1;81
18;1;1;0;0;0;81
19;1;0;0;0;0;81
