Time;the coffee machine output;the coffee request sensor;the coin sensor;the request timer;the system mode
0;0;0;0;1;1
1;0;0;1;0;0
2;0;0;0;1;0
3;0;1;0;39;2
4;0;0;1;40;1
5;0;0;1;41;1
6;0;0;0;42;1
7;0;0;0;43;1
8;0;0;0;44;1
9;0;0;0;45;1
