Time;the coffee machine output;the coffee request sensor;the coin sensor;the request timer;the system mode
0;0;0;0;1;1
1;0;0;1;0;0
2;0;0;0;1;0
3;0;0;0;2;0
4;0;0;0;3;0
5;0;0;0;4;0
6;0;0;0;5;0
7;0;0;1;6;0
8;0;0;0;7;0
9;0;0;0;8;0
10;0;0;0;9;0
11;0;0;0;10;0
12;0;0;0;11;0
13;0;0;0;12;0
14;0;0;0;13;0
15;0;0;0;14;0
16;0;0;0;15;0
17;0;0;0;16;0
18;0;0;0;17;0
19;0;0;0;18;0
20;0;0;0;19;0
21;0;0;0;20;0
22;0;0;0;21;0
23;0;0;0;22;0
24;0;0;0;23;0
25;0;0;0;24;0
26;0;0;0;25;0
27;0;0;0;26;0
28;0;0;0;27;0
29;0;0;0;28;0
30;0;0;0;29;0
31;0;0;0;30;0
32;0;0;0;31;0
33;0;1;0;0;2
34;0;0;0;1;2
35;0;0;0;2;2
36;0;0;0;3;2
37;0;0;0;4;2
38;0;0;0;5;2
39;0;0;0;6;2
40;0;0;0;7;2
41;0;0;0;8;2
42;0;0;0;9;2
43;0;0;0;10;2
44;0;0;0;11;2
45;0;0;0;12;2
46;0;0;0;13;2
47;0;0;0;14;2
48;0;0;0;15;2
49;0;0;0;16;2
50;0;0;0;17;2
51;0;0;1;18;2
52;0;0;0;19;2
53;0;1;0;20;2
54;0;0;0;21;2
55;0;0;0;22;2
56;0;0;0;23;2
57;0;0;0;24;2
58;0;0;0;25;2
59;0;0;0;26;2
60;0;1;0;27;2
61;0;0;0;28;2
62;0;0;0;29;2
63;0;0;0;30;2
64;0;0;0;31;1
65;0;0;1;0;0
66;0;0;0;1;0
67;0;1;0;0;3
68;0;0;0;1;3
69;0;0;1;2;3
70;0;0;0;3;3
71;0;0;0;4;3
72;0;1;0;5;3
73;0;0;0;6;3
74;0;0;0;7;3
75;0;0;0;8;3
76;0;0;0;9;3
77;0;0;0;10;3
78;1;0;0;11;1
79;1;1;0;12;1
80;1;0;0;13;1
81;1;0;0;14;1
82;1;0;0;15;1
83;1;0;0;16;1
84;1;0;0;17;1
