Time;the coffee machine output;the coffee request sensor;the coin sensor;the request timer;the system mode
0;0;0;0;1;1
1;0;0;1;0;0
2;0;0;0;1;0
3;0;1;0;0;3
4;0;1;0;1;3
5;0;0;0;2;3
6;0;0;0;3;3
7;0;0;0;4;3
8;0;0;0;5;3
9;0;0;0;6;3
10;0;0;0;7;3
11;0;0;0;8;3
12;0;0;0;9;3
13;0;0;0;10;3
14;1;0;0;11;1
15;1;0;1;0;0
16;1;0;0;1;0
17;1;0;0;2;0
18;1;0;0;3;0
19;1;0;0;4;0
20;1;0;0;5;0
21;1;0;0;6;0
22;1;0;0;7;0
23;1;0;0;8;0
24;1;0;0;9;0
25;1;0;0;10;0
26;1;0;0;11;0
27;1;0;0;12;0
28;1;0;0;13;0
29;1;0;0;14;0
30;1;0;0;15;0
31;1;0;0;16;0
32;1;0;0;17;0
33;1;0;0;18;0
34;1;0;0;19;0
35;1;0;0;20;0
36;1;0;0;21;0
37;1;0;0;22;0
38;1;0;0;23;0
39;1;0;0;24;0
40;1;0;0;25;0
41;1;0;0;26;0
42;1;0;0;27;0
43;1;0;0;28;0
44;1;0;0;29;0
45;1;0;0;30;0
46;1;0;0;31;0
47;1;1;0;0;2
48;1;0;0;1;2
49;1;0;0;2;2
50;1;0;0;3;2
51;1;0;0;4;2
52;1;0;0;5;2
53;1;0;0;6;2
54;1;0;0;7;2
55;1;0;0;8;2
56;1;0;0;9;2
57;1;0;0;10;2
58;1;0;0;11;2
59;1;0;0;12;2
60;1;0;0;13;2
61;1;0;0;14;2
62;1;0;0;15;2
63;1;0;0;16;2
64;1;0;0;17;2
65;1;0;0;18;2
66;1;0;0;19;2
67;1;0;0;20;2
68;1;0;0;21;2
69;1;0;0;22;2
70;1;0;0;23;2
71;1;0;0;24;2
72;1;0;0;25;2
73;1;0;0;26;2
74;1;0;1;27;2
75;1;0;0;28;2
76;1;1;0;29;2
77;1;0;0;30;2
78;0;0;0;31;1
79;0;1;1;0;0
80;0;1;0;1;0
81;0;0;1;2;0
82;0;0;0;3;0
83;0;0;1;4;0
84;0;1;0;5;0
