Time;the coffee machine output;the coffee request sensor;the coin sensor;the request timer;the system mode
0;0;0;0;1;1
1;0;1;1;0;0
2;0;0;0;1;0
3;0;1;0;0;3
4;0;1;0;1;3
5;0;0;0;2;3
6;0;0;0;3;3
7;0;0;0;4;3
8;0;0;0;5;3
9;0;0;0;6;3
10;0;0;0;7;3
11;0;0;0;8;3
12;0;0;0;9;3
13;0;0;0;10;3
14;1;0;1;11;1
15;1;0;1;12;1
16;1;0;1;13;1
17;1;0;1;14;1
18;1;0;1;15;1
19;1;0;1;16;1
20;1;0;1;17;1
21;1;0;1;18;1
22;1;0;1;19;1
23;1;0;1;20;1
24;1;0;1;21;1
25;1;0;1;22;1
26;1;0;1;23;1
27;1;0;1;24;1
28;1;0;1;25;1
29;1;0;1;26;1
30;1;0;1;27;1
31;1;0;1;28;1
32;1;0;1;29;1
33;1;0;1;30;1
34;1;1;1;31;1
35;1;1;1;32;1
36;1;1;1;33;1
37;1;0;0;34;1
38;1;0;0;35;1
39;1;0;0;36;1
40;1;0;0;37;1
41;1;0;0;38;1
