Time;emergency mode;the indication lights;the mode;the timer;the turn indicator lever;the voltage
0;0;2;2;1;0;0
1;0;2;3;0;2;81
2;0;2;3;0;2;80
3;0;0;1;0;1;100
4;1;1;0;0;2;81
5;0;0;0;0;0;81
6;0;2;3;0;2;80
7;0;1;1;0;1;81
8;0;2;3;0;2;80
9;0;0;1;0;1;81
10;0;1;3;0;2;81
11;0;0;1;0;1;81
12;1;1;0;0;1;81
13;0;0;1;0;1;81
14;0;1;3;0;2;100
15;0;2;3;0;2;80
16;0;0;1;0;1;100
17;0;1;3;0;2;81
18;1;2;0;0;1;81
