Time;emergency mode;the indication lights;the mode;the timer;the turn indicator lever;the voltage
0;0;2;2;1;0;0
1;1;2;0;0;0;80
2;0;3;1;0;1;100
3;1;1;0;0;0;81
4;0;3;0;32;0;81
5;0;3;0;33;0;81
6;0;3;0;34;0;81
7;0;2;3;0;2;81
8;0;3;1;0;1;81
9;0;1;1;0;0;81
10;0;1;1;0;1;81
11;1;2;0;0;0;80
12;0;2;3;0;2;100
13;1;3;0;0;2;81
14;0;3;0;21;0;81
15;0;3;3;0;2;81
16;0;3;1;0;1;81
17;0;2;1;0;0;80
