Time;emergency mode;the indication lights;the mode;the timer;the turn indicator lever;the voltage
0;0;2;2;1;0;0
1;0;2;1;0;1;100
2;0;1;3;0;2;0
3;1;1;0;0;0;0
4;1;0;0;0;0;100
5;0;0;1;0;1;100
6;0;2;1;22;0;0
7;1;1;0;0;2;100
8;0;2;0;2;0;0
9;0;2;0;3;0;80
10;0;0;0;0;0;100
11;0;0;0;1;0;100
12;0;1;0;0;0;0
13;0;1;3;0;2;80
14;0;1;1;0;1;80
15;0;1;3;0;2;80
16;0;3;1;0;1;100
17;0;3;1;2;0;0
