Time;emergency mode;the indication lights;the mode;the timer;the turn indicator lever;the voltage
0;0;2;2;1;0;0
1;0;2;3;0;2;81
2;1;1;0;0;1;100
3;0;0;1;0;1;100
4;0;1;3;0;2;81
5;1;1;0;0;1;81
6;0;0;1;0;1;81
7;1;1;0;0;2;81
8;0;0;3;0;2;81
9;1;2;0;0;1;81
10;0;0;3;0;2;81
11;1;1;0;0;0;100
12;1;0;3;0;2;81
13;1;1;1;0;1;81
14;1;1;0;0;0;81
15;0;2;3;0;2;80
16;1;1;0;0;2;81
17;0;0;3;0;2;81
