Time;emergency mode;the indication lights;the mode;the timer;the turn indicator lever;the voltage
0;0;2;2;1;0;0
1;1;2;0;0;2;81
2;0;0;2;0;2;81
3;0;2;1;0;1;81
4;1;1;0;0;2;81
5;0;2;2;0;2;80
6;0;2;1;0;1;81
7;0;1;3;0;2;81
8;1;2;0;0;2;80
9;0;0;2;0;2;81
10;0;2;2;0;0;81
11;0;2;1;0;1;80
12;0;2;1;1;1;80
13;0;1;1;0;1;81
14;0;1;1;1;1;81
15;0;1;3;0;2;81
16;1;3;0;0;1;81
17;0;0;1;0;1;81
