Time;emergency mode;the indication lights;the mode;the timer;the turn indicator lever;the voltage
0;0;2;2;1;0;0
1;0;2;1;0;1;0
2;0;3;1;0;0;100
3;1;3;0;0;0;100
4;0;0;1;0;1;81
5;0;3;1;34;0;81
6;1;2;0;0;1;81
7;0;0;1;0;1;81
8;0;2;1;22;0;81
9;0;1;3;0;2;81
10;0;3;3;0;0;81
11;0;3;3;1;0;81
12;0;3;3;2;0;81
13;0;3;3;3;0;81
14;0;3;3;4;0;81
15;0;3;3;5;0;81
16;0;3;3;6;0;81
17;0;3;3;7;0;81
