Time;emergency mode;the indication lights;the mode;the timer;the turn indicator lever;the voltage
0;0;2;2;1;0;0
1;0;2;1;0;1;80
2;0;3;1;2;0;100
3;0;2;1;0;1;80
4;1;0;0;0;0;100
5;1;2;3;0;2;80
6;1;2;1;0;1;80
7;1;2;1;1;1;80
8;1;0;3;0;2;81
9;1;3;1;0;1;81
10;1;2;3;0;2;81
11;1;2;1;0;1;80
12;0;0;3;0;2;100
13;0;3;1;0;1;81
14;0;2;3;0;2;81
15;1;3;0;0;0;81
16;1;2;1;0;1;80
17;1;2;1;22;1;100
