Time;emergency mode;the indication lights;the mode;the timer;the turn indicator lever;the voltage
0;0;2;2;1;0;0
1;0;2;2;0;1;81
2;0;2;2;0;1;81
3;1;2;0;0;1;81
4;0;0;3;0;2;81
5;1;3;0;0;0;81
6;0;0;3;0;2;81
7;1;3;0;0;1;81
8;0;2;1;0;1;80
9;0;1;3;0;2;81
10;0;3;3;0;0;81
11;0;3;2;0;1;81
12;0;2;2;0;0;81
13;0;2;3;0;1;81
14;1;3;0;0;0;81
15;1;0;1;0;1;81
16;0;2;1;0;0;80
