Time;emergency mode;the indication lights;the mode;the timer;the turn indicator lever;the voltage
0;0;2;2;1;0;0
1;1;2;3;0;1;81
2;1;2;3;0;1;80
3;1;3;0;0;0;81
4;0;0;3;0;2;81
5;1;3;1;0;2;81
6;0;1;3;0;2;81
7;1;3;2;0;0;81
8;0;2;2;0;0;81
9;0;2;1;0;1;81
10;0;2;1;0;0;80
11;0;1;1;0;1;81
12;1;1;2;34;0;81
13;0;2;2;0;0;81
14;0;2;2;0;0;80
15;1;2;0;22;0;80
16;0;0;0;0;0;81
