Time;emergency mode;the indication lights;the mode;the timer;the turn indicator lever;the voltage
0;0;2;2;1;0;0
1;0;2;3;0;2;80
2;0;1;3;22;0;100
3;0;2;3;0;2;80
4;1;1;0;0;0;100
5;0;2;0;0;0;80
6;0;0;0;0;0;81
7;0;2;3;0;2;80
8;0;0;3;0;2;100
9;0;0;1;0;1;81
10;0;2;1;0;0;80
11;0;2;3;0;2;80
12;1;0;0;0;2;100
13;0;0;1;0;1;81
14;1;1;0;0;2;81
15;0;0;3;0;2;81
16;0;1;3;34;0;81
17;0;2;1;0;1;81
