Time;emergency mode;the indication lights;the mode;the timer;the turn indicator lever;the voltage
0;0;2;2;1;0;0
1;0;2;1;0;1;81
2;0;3;3;0;2;80
3;1;3;0;0;0;0
4;1;0;0;0;0;81
5;0;0;1;0;1;81
6;0;2;1;22;0;80
7;1;1;0;0;2;81
8;0;2;0;2;0;80
9;0;2;0;3;0;80
10;0;0;0;0;0;81
11;0;0;0;1;0;81
12;0;1;0;0;0;0
13;0;1;3;0;2;80
14;0;1;1;0;1;80
15;0;1;3;0;2;80
16;0;3;1;0;1;81
17;0;3;1;2;0;0
