Time;emergency mode;the indication lights;the mode;the timer;the turn indicator lever;the voltage
0;0;2;2;1;0;0
1;0;0;2;0;0;100
2;0;0;2;2;0;100
3;0;1;2;0;0;81
4;0;3;2;0;0;100
5;0;2;2;0;0;80
6;0;3;2;0;0;100
7;0;2;2;0;0;80
8;0;2;2;-1;0;100
9;0;2;2;0;0;80
10;0;2;2;-1;0;100
11;0;2;2;0;0;80
12;0;2;2;1;0;80
13;0;3;2;0;0;81
14;0;3;2;1;0;100
15;0;0;2;3;0;81
16;0;1;2;5;0;81
