Time;emergency mode;the indication lights;the mode;the timer;the turn indicator lever;the voltage
0;0;2;2;1;0;0
1;0;2;3;0;2;80
2;0;2;3;1;0;100
3;0;2;3;2;0;100
4;0;2;1;0;1;81
5;0;1;3;0;2;81
6;0;2;1;0;1;81
7;0;1;1;0;1;81
8;0;1;1;1;0;81
9;0;2;3;0;2;80
10;0;0;3;0;2;100
11;0;0;1;0;1;81
12;1;1;0;0;2;81
13;0;0;1;0;1;81
14;0;1;3;0;2;81
15;0;1;3;2;0;81
16;1;1;0;0;0;81
17;0;0;1;0;1;81
