Time;emergency mode;the indication lights;the mode;the timer;the turn indicator lever;the voltage
0;0;2;2;1;0;0
1;0;2;3;0;2;80
2;0;3;3;0;2;81
3;0;3;3;1;2;81
4;0;3;3;2;2;81
5;0;3;3;3;2;81
6;0;3;3;4;2;81
7;0;3;3;5;2;81
8;0;3;3;6;2;81
9;0;3;3;7;2;81
10;0;3;3;8;2;81
11;0;3;3;9;2;81
12;0;3;3;10;2;81
13;0;3;3;11;2;81
14;0;3;3;12;2;81
15;0;3;3;13;2;81
16;0;3;3;14;2;81
17;0;3;3;15;2;81
18;0;3;3;16;2;81
19;0;3;3;17;2;81
20;0;3;3;18;2;81
21;0;3;3;19;2;81
22;0;3;3;20;2;81
23;0;3;3;21;2;81
24;0;3;3;22;2;81
25;0;3;3;23;2;81
26;0;3;3;24;2;81
27;0;3;3;25;2;81
28;0;3;3;26;2;81
29;0;3;3;27;2;81
30;0;3;3;28;2;81
31;0;3;3;29;2;81
32;0;3;3;30;2;81
33;0;3;3;31;2;81
34;0;3;3;32;2;81
35;0;3;3;33;2;81
36;0;3;3;34;2;81
37;0;1;3;50;2;81
38;0;1;3;34;2;100
39;0;3;3;25;2;100
40;0;3;3;26;2;81
41;0;3;3;27;2;81
42;0;3;3;28;2;81
43;0;3;3;29;2;81
44;0;3;3;30;2;81
45;0;3;3;31;2;81
46;0;3;3;32;2;81
47;0;3;3;33;2;81
48;0;3;3;34;2;81
49;0;1;3;34;2;81
50;0;3;3;36;2;81
51;0;1;3;38;2;81
52;0;1;3;40;2;81
53;0;1;3;42;2;81
