Time;emergency mode;the indication lights;the mode;the timer;the turn indicator lever;the voltage
0;0;2;2;1;0;0
1;1;2;0;0;0;81
2;0;0;1;0;1;81
3;0;1;1;0;1;81
4;0;1;1;1;1;81
5;0;1;1;2;1;81
6;0;1;1;3;1;81
7;0;1;1;4;1;81
8;0;1;1;5;1;81
9;0;1;1;6;1;81
10;0;1;1;7;1;81
11;0;1;1;8;1;81
12;0;1;1;9;1;81
13;0;1;1;10;1;81
14;0;1;1;11;1;81
15;0;1;1;12;1;81
16;0;1;1;13;1;81
17;0;1;1;14;1;81
18;0;1;1;15;1;81
19;0;1;1;16;1;81
20;0;1;1;17;0;81
21;0;1;1;18;0;81
22;0;1;1;19;0;81
23;0;1;1;20;0;81
24;0;1;1;21;0;81
25;0;1;1;22;0;81
26;0;1;1;0;1;100
27;0;1;1;1;0;100
28;0;1;3;0;2;100
29;0;3;3;0;2;81
30;0;3;3;1;0;81
31;0;2;1;0;1;80
32;1;1;0;0;1;81
33;0;0;0;0;0;81
34;0;0;0;1;0;81
35;0;0;0;2;0;81
36;0;0;3;0;2;81
37;0;3;3;0;0;81
38;0;3;3;1;0;81
39;0;3;3;2;0;81
40;0;2;3;0;2;80
41;0;3;3;0;0;81
