Time;emergency mode;the indication lights;the mode;the timer;the turn indicator lever;the voltage
0;0;2;2;1;0;0
1;0;2;2;2;0;80
2;1;2;0;0;2;81
3;0;0;0;0;0;81
4;0;0;0;1;0;81
5;0;0;0;2;0;81
6;1;0;0;0;0;81
7;1;2;1;0;1;80
8;1;1;0;0;0;81
9;0;0;0;0;0;81
10;1;0;0;0;1;81
11;0;2;3;0;2;80
12;0;3;1;0;1;81
13;0;1;1;0;0;81
14;0;2;3;0;2;80
15;0;2;1;0;1;80
16;0;1;1;0;1;81
17;0;2;1;0;0;80
18;0;2;1;1;0;80
19;1;1;0;0;0;81
