Time;emergency mode;the indication lights;the mode;the timer;the turn indicator lever;the voltage
0;0;2;2;1;0;0
1;1;2;0;0;2;81
2;0;0;3;0;2;81
3;0;3;3;0;2;81
4;0;3;3;1;2;81
5;0;2;1;0;1;80
6;0;2;3;0;2;80
7;0;2;1;0;1;80
8;0;2;1;1;1;80
9;1;1;0;0;2;81
10;0;0;1;0;1;81
11;1;2;0;0;2;80
12;0;0;3;0;2;81
13;1;2;0;0;1;80
14;0;2;3;0;2;80
15;0;3;1;0;1;81
16;1;1;0;0;1;81
17;0;0;1;0;1;81
18;1;1;0;0;1;81
