Time;emergency mode;the indication lights;the mode;the timer;the turn indicator lever;the voltage
0;0;2;2;1;0;0
1;1;2;0;0;0;80
2;0;2;0;1;0;80
3;0;2;0;2;0;80
4;0;2;0;3;0;80
5;0;2;0;4;0;80
6;0;2;0;5;0;80
7;0;2;0;6;0;80
8;0;2;0;7;0;80
9;0;2;0;8;0;80
10;0;2;0;9;0;80
11;0;2;0;10;0;80
12;0;2;0;11;0;80
13;0;2;0;12;0;80
14;0;2;0;13;0;80
15;0;2;0;14;0;80
16;0;2;0;15;0;80
17;0;2;0;16;0;80
18;0;2;0;17;0;80
19;0;2;0;18;0;80
20;0;2;0;19;0;80
21;0;2;0;20;0;80
22;0;2;0;21;0;80
23;0;2;0;22;0;80
24;0;0;3;0;2;81
25;0;3;3;0;2;81
26;0;3;3;1;2;81
27;0;3;3;2;2;81
28;0;3;3;3;2;81
29;0;3;3;4;2;81
30;0;3;3;5;2;81
31;0;3;3;6;2;81
32;0;3;3;7;2;81
33;0;3;3;8;2;81
34;0;3;3;9;2;81
35;0;3;3;10;2;81
36;0;3;3;11;2;81
37;0;3;3;12;2;81
38;0;3;3;13;2;81
39;0;3;3;14;2;81
40;0;3;3;15;2;81
41;0;3;3;16;2;81
42;0;3;3;17;2;81
43;0;3;3;18;2;81
44;0;3;3;19;2;81
45;0;3;3;20;2;81
46;0;3;3;21;2;81
47;0;3;3;22;2;81
48;0;3;3;23;2;81
49;0;3;3;24;2;81
50;0;3;3;25;2;81
51;0;3;3;26;2;81
52;0;3;3;27;2;81
53;0;3;3;28;0;81
54;0;3;3;29;0;81
55;0;3;3;30;0;81
56;0;3;3;31;0;81
57;0;3;3;32;0;81
58;0;3;3;33;0;81
59;0;3;3;34;0;81
60;0;2;3;0;0;81
61;0;2;3;1;0;81
62;0;2;3;2;0;81
63;0;2;3;3;0;81
64;0;2;1;0;1;81
65;0;1;1;0;1;81
66;1;2;0;0;2;80
67;0;0;3;0;2;81
68;1;3;0;0;0;81
69;0;0;0;0;0;81
70;1;0;0;0;2;81
71;1;0;0;1;0;81
72;1;0;3;0;2;81
73;1;3;0;0;0;81
74;1;0;3;0;2;81
75;0;3;1;0;1;81
