Time;emergency mode;the indication lights;the mode;the timer;the turn indicator lever;the voltage
0;0;2;2;1;0;0
1;1;2;0;0;1;80
2;0;2;1;0;1;80
3;1;1;0;0;1;81
4;1;0;3;0;2;81
5;1;3;0;0;0;81
6;0;0;1;0;1;81
7;1;1;0;0;1;81
8;1;0;3;0;2;81
9;0;3;1;0;1;81
10;1;1;0;0;1;81
11;1;0;3;0;2;81
12;0;3;1;0;1;81
13;0;1;3;0;2;81
14;1;3;0;0;1;81
15;0;0;1;0;1;81
16;1;1;0;0;0;81
17;1;0;1;0;1;81
18;1;1;1;0;1;81
19;1;2;3;0;2;80
