Time;emergency mode;the indication lights;the mode;the timer;the turn indicator lever;the voltage
0;0;2;2;1;0;0
1;0;2;2;0;0;81
2;0;2;2;0;0;80
3;0;2;2;0;0;81
4;1;2;0;0;0;80
5;1;0;3;0;2;81
6;1;3;0;0;0;81
7;0;0;1;0;1;81
8;1;2;0;0;2;80
9;0;0;1;0;1;81
10;0;2;1;0;1;80
11;1;1;0;0;2;81
12;0;0;3;0;2;81
13;1;3;0;0;2;81
14;0;0;3;0;2;81
15;1;3;0;0;1;81
16;0;0;1;0;1;81
17;0;1;3;0;2;81
18;1;3;0;0;1;81
19;0;0;1;0;1;81
