Time;emergency mode;the indication lights;the mode;the timer;the turn indicator lever;the voltage
0;0;2;2;1;0;0
1;0;2;1;0;1;81
2;0;1;3;0;2;81
3;1;2;0;0;0;80
4;1;2;0;1;0;80
5;1;2;0;2;0;80
6;1;2;0;3;0;80
7;0;2;0;4;0;80
8;0;2;0;5;0;80
9;0;2;0;6;0;80
10;0;2;0;7;0;80
11;0;2;0;8;0;80
12;0;2;0;9;0;80
13;0;2;0;10;0;80
14;0;2;0;11;0;80
15;0;2;0;12;0;80
16;0;2;0;13;0;80
17;0;2;0;14;0;80
18;0;2;0;15;0;80
19;0;2;0;16;0;80
20;0;2;0;17;0;80
21;0;2;0;18;0;80
22;0;2;0;19;0;80
23;0;2;0;20;0;80
24;0;2;0;21;0;80
25;0;2;0;22;0;80
26;0;2;0;23;0;80
27;0;2;0;24;0;80
28;0;2;0;25;0;80
29;0;2;0;26;0;80
30;0;2;0;27;0;80
31;0;2;0;28;0;80
32;0;2;0;29;0;80
33;0;2;0;30;0;80
34;0;2;0;31;0;80
35;0;2;0;32;0;80
36;0;2;0;33;0;80
37;0;2;0;34;0;80
38;0;2;0;35;0;80
39;0;2;0;36;0;80
40;0;0;0;0;0;81
41;0;2;0;0;0;80
42;1;0;0;0;2;81
