Time;emergency mode;the indication lights;the mode;the timer;the turn indicator lever;the voltage
0;0;2;2;1;0;0
1;1;2;0;0;0;80
2;1;2;0;1;0;80
3;1;0;3;0;2;81
4;1;3;3;0;2;100
5;0;3;1;0;1;100
6;0;1;3;0;2;81
7;1;3;0;0;2;100
8;1;2;0;0;2;80
9;0;2;3;0;2;80
10;0;2;3;1;2;80
11;0;2;1;0;1;80
12;0;2;1;1;1;80
13;1;2;0;0;0;80
14;0;2;0;1;0;80
15;1;2;0;0;0;80
16;0;2;1;0;1;80
17;0;2;3;0;2;80
18;0;2;3;1;0;80
19;1;2;0;0;0;80
