Time;emergency mode;the indication lights;the mode;the timer;the turn indicator lever;the voltage
0;0;2;2;1;0;0
1;1;2;0;0;1;81
2;0;0;0;0;0;81
3;0;0;0;1;0;81
4;0;0;0;2;0;81
5;0;0;0;3;0;81
6;0;0;0;4;0;81
7;0;0;0;5;0;81
8;0;0;0;6;0;81
9;0;0;0;7;0;81
10;0;0;0;8;0;81
11;0;0;0;9;0;81
12;0;0;0;10;0;81
13;0;0;0;11;0;81
14;0;0;0;12;0;81
15;0;0;0;13;0;81
16;0;0;0;14;0;81
17;0;0;0;15;0;81
18;0;0;0;16;0;81
19;0;0;0;17;0;81
20;0;0;0;18;0;81
21;0;0;0;19;0;81
22;0;0;0;20;0;81
23;0;0;0;21;0;81
24;0;0;0;22;0;81
25;0;0;0;23;0;81
26;0;0;0;24;0;81
27;0;0;0;25;0;81
28;0;2;0;0;0;80
29;0;0;0;0;0;81
30;0;2;0;0;0;80
31;0;0;0;0;0;81
32;0;0;0;1;0;81
33;0;2;0;0;0;80
34;0;0;0;0;0;81
35;0;2;0;0;0;80
36;0;0;0;0;0;81
37;0;2;0;0;0;80
38;0;0;0;0;0;81
39;0;2;0;0;0;80
40;0;0;0;0;0;81
41;1;2;0;0;1;80
