Time;emergency mode;the indication lights;the mode;the timer;the turn indicator lever;the voltage
0;0;2;2;1;0;0
1;0;2;2;2;0;80
2;1;2;0;0;2;81
3;0;0;0;0;0;81
4;0;2;0;0;0;80
5;0;2;1;0;1;80
6;1;2;0;0;2;80
7;0;0;3;0;2;81
8;0;3;1;0;1;81
9;0;1;3;0;2;81
10;0;3;1;0;1;81
11;1;1;0;0;1;81
12;0;0;1;0;1;81
13;0;1;3;0;2;81
14;0;3;1;0;1;81
15;1;1;0;0;0;81
16;0;2;1;0;1;80
17;1;1;0;0;1;81
18;0;0;1;0;1;81
19;0;1;3;0;2;81
