Time;emergency mode;the indication lights;the mode;the timer;the turn indicator lever;the voltage
0;0;2;2;1;0;0
1;1;2;0;0;2;80
2;0;2;0;1;0;80
3;0;0;3;0;2;81
4;0;3;1;0;1;100
5;0;1;3;0;2;81
6;1;3;0;0;1;81
7;0;0;3;0;2;100
8;0;3;3;0;0;100
9;1;3;0;0;2;81
10;0;0;3;0;2;81
11;1;2;0;0;0;80
12;0;0;3;0;2;81
13;1;2;0;0;1;80
14;0;0;1;0;1;81
15;0;1;3;0;2;81
16;0;3;3;0;2;100
17;0;3;3;1;2;81
18;0;3;3;2;2;81
19;0;3;3;3;2;81
