Time;emergency mode;the indication lights;the mode;the timer;the turn indicator lever;the voltage
0;0;2;2;1;0;0
1;1;2;0;0;2;81
2;1;0;1;0;1;81
3;0;1;3;0;2;81
4;1;3;0;0;1;81
5;0;2;1;0;1;80
6;0;1;1;0;1;81
7;0;2;1;0;1;80
8;1;1;0;0;1;81
9;0;0;1;0;1;81
10;1;2;0;0;1;80
11;0;0;1;0;1;81
12;0;1;3;0;2;81
13;0;3;3;0;2;81
14;1;2;0;0;0;80
15;0;0;1;0;1;81
16;1;1;0;0;0;81
17;0;0;1;0;1;81
18;1;1;0;0;1;81
19;0;0;1;0;1;81
20;0;2;3;0;2;80
