Time;emergency mode;the indication lights;the mode;the timer;the turn indicator lever;the voltage
0;0;2;2;1;0;0
1;0;2;3;0;2;81
2;0;2;1;0;1;80
3;0;1;3;0;2;81
4;0;3;1;0;1;81
5;0;1;1;0;0;81
6;0;2;1;0;1;80
7;1;1;0;0;1;81
8;0;0;1;0;1;81
9;1;1;0;0;1;81
10;0;0;1;0;1;81
11;0;1;3;0;2;81
12;1;2;0;0;0;80
13;1;0;0;0;0;81
14;1;2;1;0;1;80
15;1;1;0;0;0;81
16;1;0;3;0;2;81
17;0;3;3;0;0;81
18;0;2;1;0;1;80
