Time;emergency mode;the indication lights;the mode;the timer;the turn indicator lever;the voltage
0;0;2;2;1;0;0
1;1;2;0;0;0;81
2;1;0;1;0;1;81
3;1;2;3;0;2;80
4;0;3;1;0;1;81
5;0;1;3;0;2;81
6;0;3;1;0;1;81
7;1;1;0;0;2;81
8;0;0;3;0;2;81
9;0;2;1;0;1;80
10;1;2;0;0;0;80
11;1;0;3;0;2;81
12;1;3;1;0;1;81
13;1;1;0;0;0;81
14;0;0;3;0;2;81
15;1;3;0;0;2;81
16;0;0;1;0;1;81
17;1;1;0;0;0;81
18;1;0;3;0;2;81
