Time;emergency mode;the indication lights;the mode;the timer;the turn indicator lever;the voltage
0;0;2;2;1;0;0
1;0;2;2;2;0;80
2;0;2;3;0;2;81
3;1;3;0;0;1;81
4;0;2;3;0;2;79
5;0;3;3;0;0;81
6;0;3;3;0;2;81
7;1;2;0;0;0;79
8;0;2;0;1;0;80
9;0;2;3;0;2;80
10;0;3;1;0;1;81
11;1;2;0;0;0;79
12;0;0;0;0;0;81
13;0;0;3;0;2;81
14;0;3;1;0;1;81
15;0;2;1;0;0;79
16;0;1;3;0;2;81
17;1;3;0;0;0;81
18;0;2;1;0;1;80
19;0;1;1;0;0;81
