Time;emergency mode;the indication lights;the mode;the timer;the turn indicator lever;the voltage
0;0;2;2;1;0;0
1;0;2;3;0;2;80
2;0;2;3;1;2;80
3;1;3;0;0;1;81
4;0;0;1;0;1;100
5;1;1;0;0;0;100
6;0;0;1;0;1;100
7;1;1;0;0;2;81
8;1;0;1;0;1;100
9;1;1;1;0;1;100
10;1;1;1;1;1;100
11;1;1;3;0;2;81
12;1;3;0;0;0;100
13;1;0;1;0;1;100
14;0;1;3;0;2;100
15;1;3;0;0;2;81
16;0;0;3;0;2;81
17;0;3;1;0;1;81
18;0;1;3;0;2;81
19;1;3;0;0;1;81
