Time;emergency mode;the indication lights;the mode;the timer;the turn indicator lever;the voltage
0;0;2;2;1;0;0
1;0;2;3;0;2;81
2;0;3;3;0;0;81
3;0;3;3;1;0;81
4;0;3;3;2;0;81
5;0;3;3;3;0;81
6;0;3;3;4;0;81
7;0;3;3;5;0;81
8;0;3;3;6;0;81
9;0;3;3;7;0;81
10;0;3;3;8;0;81
11;0;3;3;9;0;81
12;0;3;3;10;0;81
13;0;3;3;11;0;81
14;0;3;3;12;0;81
15;0;3;3;13;0;81
16;0;3;3;14;0;81
17;0;3;3;15;0;81
18;0;3;3;16;0;81
19;0;3;3;17;0;81
20;0;3;3;18;0;81
21;0;3;3;19;0;81
22;0;3;3;20;0;81
23;0;3;3;21;0;81
24;0;3;3;22;0;81
25;0;3;3;23;0;81
26;0;3;3;24;0;81
27;0;3;3;25;0;81
28;0;3;3;26;0;81
29;0;3;3;27;0;81
30;0;3;3;28;0;81
31;0;3;3;29;0;81
32;0;3;3;30;0;81
33;0;3;3;31;0;81
34;0;3;3;32;0;81
35;0;3;3;33;0;81
36;0;3;3;34;0;81
37;0;2;1;0;1;81
38;0;1;1;0;1;81
39;0;1;1;1;1;81
40;0;1;1;2;1;81
41;0;1;1;3;1;81
42;0;1;1;4;1;81
43;0;1;1;5;1;81
44;0;1;1;6;1;81
45;0;1;1;7;1;81
46;0;1;1;8;0;81
47;0;1;1;9;0;81
48;0;1;1;10;0;81
49;0;1;1;11;0;81
50;0;1;1;12;0;81
51;0;1;1;13;0;81
52;0;1;1;14;0;81
53;0;1;1;15;0;81
54;0;1;1;16;0;81
55;0;1;1;17;0;81
56;0;1;1;18;0;81
57;0;1;1;19;0;81
58;0;1;1;20;0;81
59;0;1;1;21;0;81
60;0;1;1;22;0;81
61;0;1;1;23;0;81
62;0;1;1;24;0;81
63;0;1;1;25;0;81
64;0;1;1;26;0;81
65;0;1;1;27;0;81
66;0;1;1;28;0;81
67;0;1;1;29;0;81
68;0;1;1;30;0;81
69;0;1;1;31;0;81
70;0;1;1;32;0;81
71;0;1;1;33;0;81
72;0;1;1;34;0;81
73;0;2;3;0;2;81
74;1;3;0;0;0;81
75;0;0;1;0;1;81
76;1;1;0;0;0;81
77;0;0;1;0;1;81
78;0;2;1;0;0;80
79;0;2;3;0;2;80
80;1;3;0;0;0;81
81;0;0;0;0;0;81
82;0;2;0;0;0;80
83;0;0;0;0;0;81
84;0;2;0;0;0;80
85;0;0;0;0;0;81
86;0;2;0;0;0;80
87;0;0;0;0;0;81
88;0;2;0;0;0;80
