Time;emergency mode;the indication lights;the mode;the timer;the turn indicator lever;the voltage
0;0;2;2;1;0;0
1;0;2;3;0;2;80
2;1;3;0;0;2;81
3;0;2;3;0;2;80
4;0;2;3;1;0;80
5;0;2;3;2;0;80
6;0;2;3;3;0;80
7;0;2;3;4;0;80
8;0;2;3;5;0;80
9;0;2;3;6;0;80
10;0;2;3;7;0;80
11;0;2;3;8;0;80
12;0;2;3;9;0;80
13;0;2;3;10;0;80
14;0;2;3;11;0;80
15;0;2;3;12;0;80
16;0;2;3;13;0;80
17;0;2;3;14;0;80
18;0;2;3;15;0;80
19;0;2;3;16;0;80
20;0;2;3;17;0;80
21;0;2;3;18;0;80
22;0;2;3;19;0;80
23;0;2;3;20;0;80
24;0;2;3;21;0;80
25;0;2;3;22;0;80
26;0;2;3;23;0;80
27;0;2;3;24;0;80
28;0;3;1;0;1;81
29;1;1;0;0;0;81
30;0;0;1;0;1;81
31;0;1;1;0;0;81
32;0;1;1;1;0;81
33;0;1;3;0;2;81
34;0;3;1;0;1;81
35;1;1;0;0;2;81
36;0;0;3;0;2;81
37;0;3;3;0;0;81
38;0;3;3;1;0;81
39;1;3;0;0;1;81
40;1;0;0;0;1;81
41;1;0;0;1;1;81
42;1;0;0;2;1;81
