Time;emergency mode;the indication lights;the mode;the timer;the turn indicator lever;the voltage
0;0;2;2;1;0;0
1;0;2;2;2;0;80
2;0;2;1;0;1;81
3;1;1;0;0;1;81
4;1;2;0;0;0;80
5;0;2;0;1;0;80
6;0;0;1;0;1;81
7;0;1;1;0;1;81
8;1;1;0;0;2;81
9;0;2;3;0;2;80
10;0;3;3;0;0;81
11;0;2;1;0;1;80
12;0;1;1;0;0;81
13;0;1;1;0;1;81
14;0;2;1;0;1;80
15;0;1;3;0;2;81
16;0;3;3;0;2;81
17;0;2;1;0;1;80
18;0;2;3;0;2;80
19;1;3;0;0;0;81
