Time;emergency mode;the indication lights;the mode;the timer;the turn indicator lever;the voltage
0;0;2;2;1;0;0
1;0;2;2;2;0;80
2;1;2;0;0;0;81
3;0;0;1;0;1;81
4;1;2;0;0;0;79
5;0;0;0;0;0;81
6;0;0;1;0;1;81
7;1;2;0;0;1;79
8;1;2;0;1;0;79
9;0;0;3;0;2;81
10;0;3;1;0;1;81
11;0;1;3;0;2;81
12;1;3;0;0;1;81
13;0;0;1;0;1;81
14;0;1;3;0;2;81
15;0;3;1;0;1;81
16;0;1;1;0;1;81
17;1;2;0;0;1;79
18;1;0;3;0;2;81
19;1;2;0;0;0;80
