Time;emergency mode;the indication lights;the mode;the timer;the turn indicator lever;the voltage
0;0;2;2;1;0;0
1;1;2;0;0;0;81
2;1;2;1;0;1;80
3;1;1;0;0;0;81
4;1;2;1;0;1;80
5;0;1;1;0;1;81
6;1;1;0;0;2;81
7;1;2;1;0;1;80
8;1;1;1;0;1;81
9;1;2;1;0;1;80
10;0;1;1;0;1;81
11;0;1;3;0;2;81
12;0;3;1;0;1;81
13;0;1;3;0;2;81
14;0;3;1;0;1;81
15;1;1;0;0;1;81
16;1;0;0;0;1;81
17;0;0;1;0;1;81
18;0;2;3;0;2;80
