Time;emergency mode;the indication lights;the mode;the timer;the turn indicator lever;the voltage
0;0;2;2;1;0;0
1;0;2;2;2;0;80
2;1;2;0;0;2;81
3;0;0;0;0;0;81
4;0;2;0;0;0;79
5;0;2;3;0;2;79
6;0;3;3;0;0;81
7;0;2;3;0;0;79
8;0;2;3;1;0;80
9;0;2;1;0;1;79
10;1;1;0;0;1;81
11;0;0;3;0;2;81
12;0;2;1;0;1;80
13;0;2;1;1;0;80
14;0;1;3;0;2;81
15;0;3;1;0;1;81
16;0;1;1;0;0;81
17;0;1;3;0;2;81
18;0;3;3;0;0;81
19;0;2;3;0;0;79
