Time;emergency mode;the indication lights;the mode;the timer;the turn indicator lever;the voltage
0;0;2;2;1;0;0
1;0;2;3;0;2;80
2;1;3;0;0;0;81
3;0;0;3;0;2;81
4;0;3;3;0;2;81
5;0;3;3;1;0;81
6;1;3;0;0;1;81
7;0;0;1;0;1;81
8;0;1;3;0;2;81
9;1;3;0;0;1;81
10;0;0;1;0;1;81
11;0;1;3;0;2;81
12;0;2;3;0;0;80
13;0;3;1;0;1;81
14;1;1;0;0;0;81
15;0;0;0;0;0;81
16;0;0;0;1;0;81
17;0;0;0;2;0;81
18;0;0;0;3;0;81
