Time;emergency mode;the indication lights;the mode;the timer;the turn indicator lever;the voltage
0;0;2;2;1;0;0
1;0;2;1;0;1;80
2;0;2;1;1;1;80
3;0;2;1;2;1;80
4;0;2;1;3;1;80
5;0;2;1;4;1;80
6;0;2;1;5;1;80
7;0;2;1;6;1;80
8;0;2;1;7;1;80
9;0;2;1;8;1;80
10;0;2;1;9;0;80
11;0;2;1;10;0;80
12;0;2;1;11;0;80
13;0;2;1;12;0;80
14;0;2;1;13;0;80
15;0;2;1;14;0;80
16;0;2;1;15;0;80
17;0;2;1;16;0;80
18;0;2;1;17;0;80
19;0;2;1;18;0;80
20;0;2;1;19;0;80
21;0;2;1;20;0;80
22;0;2;1;21;0;80
23;0;2;1;22;0;80
24;1;1;0;0;0;81
25;1;0;3;0;2;81
26;1;3;0;0;0;81
27;0;0;1;0;1;81
28;0;1;3;0;2;81
29;0;2;1;0;1;80
30;0;1;3;0;2;81
31;1;3;0;0;2;81
32;0;2;1;0;1;80
33;1;1;0;0;0;81
34;0;0;1;0;1;81
35;0;1;3;0;2;81
36;0;3;1;0;1;81
37;1;1;0;0;1;81
38;0;2;1;0;1;80
39;0;1;3;0;2;81
40;0;3;1;0;1;81
41;0;1;3;0;2;81
