Time;emergency mode;the indication lights;the mode;the timer;the turn indicator lever;the voltage
0;0;2;2;1;0;0
1;1;2;0;0;2;81
2;0;0;0;0;0;81
3;0;0;0;1;0;81
4;0;0;0;2;0;81
5;0;0;0;3;0;81
6;0;0;0;4;0;81
7;0;0;0;5;0;81
8;0;0;0;6;0;81
9;0;0;0;7;0;81
10;0;0;0;8;0;81
11;0;0;0;9;0;81
12;0;0;0;10;0;81
13;0;0;0;11;0;81
14;0;0;0;12;0;81
15;0;0;0;13;0;81
16;0;0;0;14;0;81
17;0;0;0;15;0;81
18;0;0;0;16;0;81
19;0;0;0;17;0;81
20;0;0;0;18;0;81
21;0;0;0;19;0;81
22;0;0;0;20;0;81
23;0;0;0;21;0;81
24;0;0;0;22;0;81
25;0;0;0;23;0;81
26;0;0;0;24;0;81
27;0;0;0;25;0;81
28;0;0;0;26;0;81
29;0;0;0;27;0;81
30;0;0;0;28;0;81
31;0;0;0;29;0;81
32;0;0;0;30;0;81
33;0;0;0;31;0;81
34;0;0;0;32;0;81
35;0;0;0;33;0;81
36;0;0;0;34;0;81
37;0;0;0;35;0;81
38;0;0;0;36;0;81
39;0;0;0;37;0;81
40;0;0;0;38;0;81
41;0;0;0;39;0;81
42;0;0;0;40;0;81
43;0;0;0;41;0;81
44;0;0;0;42;0;81
45;0;0;0;43;0;81
46;0;0;0;44;0;81
47;0;0;0;45;0;81
48;0;0;0;46;0;81
49;0;0;0;47;0;81
50;0;0;0;48;0;81
51;0;0;0;49;0;81
52;0;0;0;50;0;81
53;0;2;3;0;2;79
54;0;3;3;0;0;81
55;0;3;3;1;0;81
56;0;3;3;2;0;81
57;0;3;3;3;0;81
58;0;2;3;0;2;79
59;0;2;3;1;0;80
60;1;2;0;0;0;80
61;0;2;0;1;0;80
62;0;2;3;0;2;79
63;0;2;3;1;0;80
64;0;2;3;2;0;80
65;1;3;0;0;0;81
66;0;0;0;0;0;81
67;0;2;3;0;2;79
68;0;3;3;0;0;81
