Time;emergency mode;the indication lights;the mode;the timer;the turn indicator lever;the voltage
0;0;2;2;1;0;0
1;1;2;0;0;0;81
2;1;0;3;0;2;81
3;1;2;1;0;1;80
4;1;1;3;0;2;81
5;0;2;1;0;1;80
6;0;1;1;0;1;81
7;0;2;1;0;0;80
8;0;1;1;0;1;81
9;0;2;3;0;2;80
10;1;3;0;0;0;81
11;0;0;0;0;0;81
12;0;0;3;0;2;81
13;1;3;0;0;0;81
14;0;0;0;0;0;81
15;0;0;0;1;0;81
16;0;0;1;0;1;81
17;0;1;3;0;2;81
18;0;2;1;0;1;80
19;1;1;0;0;1;81
