Time;emergency mode;the indication lights;the mode;the timer;the turn indicator lever;the voltage
0;0;2;2;1;0;0
1;1;2;0;0;2;80
2;0;2;0;1;0;80
3;0;0;3;0;2;81
4;0;2;1;0;1;80
5;0;2;3;0;2;79
6;1;3;0;0;2;81
7;0;0;3;0;2;81
8;0;3;3;0;2;81
9;1;3;0;0;1;81
10;0;0;1;0;1;81
11;0;1;3;0;2;81
12;0;3;1;0;1;81
13;0;1;3;0;2;81
14;1;2;0;0;1;80
15;0;2;1;0;1;80
16;0;2;3;0;2;80
17;1;2;0;0;0;80
18;0;2;3;0;2;80
19;0;2;3;1;0;80
20;0;2;3;2;0;80
