Time;emergency mode;the indication lights;the mode;the timer;the turn indicator lever;the voltage
0;0;2;2;1;0;0
1;0;2;1;0;1;81
2;1;1;0;0;1;81
3;0;2;1;0;1;80
4;0;2;1;1;1;80
5;0;2;1;2;1;80
6;0;2;1;3;1;80
7;0;2;1;4;0;80
8;1;2;0;0;0;80
9;0;2;0;1;0;80
10;0;2;0;2;0;80
11;1;2;0;0;1;80
12;0;0;1;0;1;81
13;0;2;3;0;2;80
14;0;2;3;1;2;80
15;0;3;1;0;1;81
16;0;1;3;0;2;81
17;1;3;0;0;2;81
18;0;0;3;0;2;81
19;0;3;1;0;1;81
20;0;1;1;0;0;81
