Time;emergency mode;the indication lights;the mode;the timer;the turn indicator lever;the voltage
0;0;2;2;1;0;0
1;0;2;3;0;2;80
2;0;3;1;0;1;81
3;0;1;3;0;2;81
4;0;3;1;0;1;81
5;0;1;1;0;1;81
6;1;1;0;0;2;81
7;0;0;3;0;2;81
8;1;3;0;0;1;81
9;0;0;0;0;0;81
10;0;2;3;0;2;80
11;1;3;0;0;2;81
12;0;0;3;0;2;81
13;0;3;3;0;0;81
14;0;3;1;0;1;81
15;1;1;0;0;0;81
16;0;0;0;0;0;81
17;0;2;0;0;0;80
18;0;0;0;0;0;81
19;0;2;3;0;2;80
