Time;emergency mode;the indication lights;the mode;the timer;the turn indicator lever;the voltage
0;0;2;2;1;0;0
1;0;2;3;0;2;81
2;0;3;3;0;0;81
3;0;3;3;1;0;81
4;1;2;0;0;0;80
5;1;0;3;0;2;81
6;1;2;0;0;0;80
7;0;0;0;0;0;81
8;1;0;0;0;0;81
9;0;2;0;0;0;80
10;0;2;0;1;0;80
11;0;0;1;0;1;81
12;1;2;0;0;2;80
13;0;0;3;0;2;81
14;0;3;1;0;1;81
15;0;2;3;0;2;80
16;0;2;3;1;2;80
17;0;2;3;2;2;80
18;0;2;3;3;0;80
19;0;2;3;0;2;80
20;0;2;3;1;0;80
