Time;emergency mode;the indication lights;the mode;the timer;the turn indicator lever;the voltage
0;0;2;2;1;0;0
1;1;2;0;0;0;81
2;1;2;3;0;2;80
3;1;3;1;0;1;81
4;0;1;3;0;2;81
5;0;2;3;0;2;80
6;0;3;1;0;1;81
7;0;2;1;0;1;80
8;0;2;1;1;1;80
9;0;1;1;0;1;81
10;1;1;0;0;1;81
11;1;2;3;0;2;80
12;0;3;1;0;1;81
13;0;1;3;0;2;81
14;1;3;0;0;0;81
15;1;0;3;0;2;81
16;0;3;3;0;0;81
17;0;3;3;0;2;81
18;0;3;3;1;0;81
19;1;3;0;0;1;81
