Time;emergency mode;the indication lights;the mode;the timer;the turn indicator lever;the voltage
0;0;2;2;1;0;0
1;0;2;3;0;2;81
2;1;3;0;0;0;81
3;1;0;1;0;1;81
4;1;2;3;0;2;80
5;0;3;1;0;1;81
6;0;1;3;0;2;81
7;1;3;0;0;0;81
8;0;2;3;0;2;80
9;1;2;0;0;0;80
10;1;0;1;0;1;81
11;1;2;0;0;0;80
12;0;0;1;0;1;81
13;1;1;0;0;0;81
14;1;0;1;0;1;81
15;0;1;3;0;2;81
16;1;3;0;0;0;81
17;1;0;1;0;1;81
18;1;1;0;0;0;81
