Time;emergency mode;the indication lights;the mode;the timer;the turn indicator lever;the voltage
0;0;2;2;1;0;0
1;0;2;3;0;2;81
2;0;3;3;0;0;81
3;1;2;0;0;2;79
4;0;2;0;1;0;79
5;0;2;1;0;1;79
6;0;1;1;0;0;81
7;1;1;0;0;0;81
8;1;0;3;0;2;81
9;1;3;0;0;0;81
10;0;0;3;0;2;81
11;0;3;1;0;1;81
12;1;2;0;0;2;79
13;0;2;3;0;2;79
14;0;3;1;0;1;81
15;1;1;0;0;1;81
16;1;0;3;0;2;81
17;1;2;0;0;0;79
18;0;2;0;1;0;79
19;0;2;0;2;0;79
20;0;2;0;3;0;79
