Time;emergency mode;the indication lights;the mode;the timer;the turn indicator lever;the voltage
0;0;2;2;1;0;0
1;0;2;2;2;0;80
2;0;2;1;0;1;81
3;1;1;0;0;1;81
4;0;2;1;0;1;80
5;1;2;0;0;0;79
6;0;0;3;0;2;81
7;0;3;1;0;1;81
8;1;1;0;0;2;81
9;0;0;3;0;2;81
10;0;2;1;0;1;80
11;0;2;1;1;1;79
12;0;1;3;0;2;81
13;0;3;1;0;1;81
14;0;1;3;0;2;81
15;1;3;0;0;0;81
16;0;0;3;0;2;81
17;0;3;1;0;1;81
18;1;1;0;0;1;81
19;0;2;3;0;2;80
20;0;3;1;0;1;81
