Time;emergency mode;the indication lights;the mode;the timer;the turn indicator lever;the voltage
0;0;2;2;1;0;0
1;0;2;3;0;2;81
2;1;2;0;0;2;80
3;1;2;0;1;0;80
4;0;2;0;2;0;80
5;0;2;0;3;0;80
6;0;2;0;4;0;80
7;0;2;0;5;0;80
8;0;2;0;6;0;80
9;0;2;0;7;0;80
10;0;2;0;8;0;80
11;0;2;0;9;0;80
12;0;2;0;10;0;80
13;0;2;0;11;0;80
14;0;2;0;12;0;80
15;0;2;0;13;0;80
16;0;2;0;14;0;80
17;0;2;0;15;0;80
18;0;2;0;16;0;80
19;0;2;0;17;0;80
20;0;2;0;18;0;80
21;0;2;0;19;0;80
22;0;2;0;20;0;80
23;0;2;0;21;0;80
24;0;2;0;22;0;80
25;0;0;3;0;2;81
26;0;3;1;0;1;81
27;0;1;3;0;2;81
28;0;2;1;0;1;80
29;1;1;0;0;0;81
30;0;0;3;0;2;81
31;0;3;1;0;1;81
32;1;2;0;0;0;80
33;0;2;3;0;2;80
34;0;2;1;0;1;80
35;1;2;0;0;2;80
36;0;2;3;0;2;80
37;1;2;0;0;0;80
38;0;2;1;0;1;80
39;1;1;0;0;0;81
40;0;2;0;0;0;80
