Time;emergency mode;the indication lights;the mode;the timer;the turn indicator lever;the voltage
0;0;2;2;1;0;0
1;0;2;2;0;0;81
2;0;2;3;0;2;81
3;0;3;1;0;1;81
4;0;1;3;0;2;81
5;0;3;1;0;1;81
6;0;1;3;0;2;81
7;0;2;1;0;1;80
8;1;1;0;0;0;81
9;0;0;3;0;2;81
10;1;3;0;0;2;81
11;1;0;1;0;1;81
12;1;1;3;0;2;81
13;1;3;0;0;0;81
14;0;0;1;0;1;81
15;0;1;3;0;2;81
16;1;2;0;0;0;80
17;1;0;3;0;2;81
