Time;emergency mode;the indication lights;the mode;the timer;the turn indicator lever;the voltage
0;0;2;2;1;0;0
1;0;2;1;0;1;81
2;1;1;0;0;0;81
3;1;2;3;0;2;80
4;1;2;3;1;2;80
5;1;2;3;2;2;80
6;1;2;3;3;2;80
7;1;2;3;4;2;80
8;1;2;3;5;2;80
9;1;2;3;6;2;80
10;1;2;3;7;2;80
11;1;2;3;8;2;80
12;1;2;3;9;2;80
13;1;2;3;10;2;80
14;1;2;3;11;2;80
15;1;2;3;12;2;80
16;1;2;3;13;2;80
17;1;2;3;14;2;80
18;1;2;3;15;2;80
19;1;2;3;16;2;80
20;1;2;3;17;2;80
21;0;2;3;18;2;80
22;0;2;3;19;2;80
23;0;2;3;20;2;80
24;0;2;3;21;2;80
25;0;2;3;22;2;80
26;1;2;0;0;0;80
27;0;2;0;1;0;80
28;0;0;0;0;0;81
29;1;0;0;0;0;81
30;0;0;0;1;0;81
31;0;0;3;0;2;81
32;0;3;1;0;1;81
33;1;2;0;0;0;80
34;0;2;0;1;0;80
35;0;2;3;0;2;80
36;0;3;3;0;0;81
37;0;3;1;0;1;81
38;0;1;3;0;2;81
39;1;3;0;0;1;81
40;0;0;3;0;2;81
41;0;3;1;0;1;81
