Time;emergency mode;the indication lights;the mode;the timer;the turn indicator lever;the voltage
0;0;2;2;1;0;0
1;1;2;0;0;0;80
2;0;2;0;1;0;80
3;0;2;0;2;0;80
4;0;2;0;3;0;80
5;0;2;0;4;0;80
6;0;2;0;5;0;80
7;0;2;0;6;0;80
8;0;2;0;7;0;80
9;0;2;0;8;0;80
10;0;2;0;9;0;80
11;0;2;0;10;0;80
12;0;2;0;11;0;80
13;0;2;0;12;0;80
14;0;2;0;13;0;80
15;0;2;0;14;0;80
16;0;2;0;15;0;80
17;0;2;0;16;0;80
18;0;2;0;17;0;80
19;0;2;0;18;0;80
20;0;2;0;19;0;80
21;0;2;0;20;0;80
22;0;2;0;21;0;80
23;0;2;0;22;0;80
24;0;0;1;0;1;81
25;0;1;1;0;1;81
26;0;1;1;1;1;81
27;0;1;1;2;1;81
28;0;1;1;3;1;81
29;0;1;1;4;1;81
30;0;1;1;5;1;81
31;0;1;1;6;1;81
32;0;1;1;7;1;81
33;0;1;1;8;1;81
34;0;1;1;9;1;81
35;0;1;1;10;1;81
36;0;1;1;11;1;81
37;0;1;1;12;1;81
38;0;1;1;13;1;81
39;0;1;1;14;1;81
40;0;1;1;15;1;81
41;0;1;1;16;1;81
42;0;1;1;17;1;81
43;0;1;1;18;1;81
44;0;1;1;19;1;81
45;0;1;1;20;1;81
46;0;1;1;21;1;81
47;0;1;1;22;1;81
48;0;1;1;23;1;81
49;0;1;1;24;1;81
50;0;1;1;25;1;81
51;0;1;1;26;1;81
52;0;1;1;27;1;81
53;0;1;1;28;1;81
54;0;1;1;29;1;81
55;0;1;1;30;1;81
56;0;1;1;31;1;81
57;0;1;1;32;1;81
58;0;1;1;33;1;81
59;0;1;1;34;1;81
60;0;2;1;0;1;81
61;0;2;1;1;0;81
62;0;2;1;0;1;81
63;0;2;1;1;0;81
64;0;2;1;0;1;81
65;0;2;1;1;0;81
66;0;2;1;0;1;81
67;0;2;1;1;0;81
68;0;2;1;2;0;81
69;0;2;1;0;1;81
70;0;2;1;1;0;81
71;0;2;1;0;1;81
72;1;2;0;0;2;81
73;0;0;0;0;0;81
74;0;0;3;0;2;81
75;1;3;0;0;1;81
