Time;emergency mode;the indication lights;the mode;the timer;the turn indicator lever;the voltage
0;0;2;2;1;0;0
1;1;2;0;0;1;80
2;0;2;1;0;1;80
3;0;1;3;0;2;81
4;0;2;1;0;1;80
5;0;1;1;0;1;81
6;0;1;1;1;0;81
7;1;2;0;0;1;80
8;0;2;1;0;1;80
9;0;1;3;0;2;81
10;1;3;0;0;0;81
11;0;0;3;0;2;81
12;0;3;1;0;1;81
13;1;1;0;0;0;81
14;0;0;0;0;0;81
15;0;2;0;0;0;80
16;0;0;0;0;0;81
17;0;2;0;0;0;80
18;0;0;0;0;0;81
19;0;2;0;0;0;80
