Time;emergency mode;the indication lights;the mode;the timer;the turn indicator lever;the voltage
0;0;2;2;1;0;0
1;0;2;3;0;2;80
2;0;2;3;1;2;80
3;0;2;3;2;2;80
4;0;2;3;3;2;80
5;0;2;3;4;2;80
6;0;2;3;5;2;80
7;0;2;3;6;2;80
8;0;2;3;7;2;80
9;0;2;3;8;2;80
10;0;2;3;9;2;80
11;0;2;3;10;2;80
12;0;2;3;11;2;80
13;0;2;3;12;2;80
14;0;2;3;13;2;80
15;0;2;3;14;2;80
16;0;2;3;15;2;80
17;0;2;3;16;2;80
18;0;2;3;17;2;80
19;0;2;3;18;2;80
20;0;2;3;19;2;80
21;0;2;3;20;2;80
22;0;2;3;21;2;80
23;0;2;3;22;2;80
24;0;3;3;0;0;81
25;0;3;3;0;2;81
26;0;3;3;1;0;81
27;0;3;3;0;2;81
28;0;3;3;1;0;81
29;0;3;3;2;0;81
30;0;3;3;0;2;81
31;0;3;3;1;0;81
32;0;3;3;0;2;81
33;0;3;3;1;0;81
34;0;3;3;2;0;81
35;0;3;3;3;0;81
36;0;3;3;4;0;81
37;0;3;3;5;0;81
38;0;3;3;6;0;81
39;0;3;3;7;0;81
40;0;3;3;8;0;81
