Time;emergency mode;the indication lights;the mode;the timer;the turn indicator lever;the voltage
0;0;2;2;1;0;0
1;1;2;0;0;2;80
2;0;2;0;1;0;80
3;0;0;0;0;0;81
4;0;2;1;0;1;80
5;1;1;0;0;0;81
6;1;2;1;0;1;80
7;0;1;1;0;0;81
8;0;1;1;0;1;81
9;0;2;1;0;1;80
10;0;1;3;0;2;81
11;0;3;1;0;1;81
12;0;1;3;0;2;81
13;0;3;1;0;1;81
14;0;2;1;0;1;80
15;0;1;3;0;2;81
16;0;3;1;0;1;81
17;1;1;0;0;2;81
18;0;0;3;0;2;81
19;1;2;0;0;0;80
20;1;0;3;0;2;81
