Time;emergency mode;the indication lights;the mode;the timer;the turn indicator lever;the voltage
0;0;2;2;1;0;0
1;1;2;0;0;0;81
2;1;0;3;0;2;81
3;0;3;3;0;2;81
4;1;2;0;0;1;80
5;0;0;1;0;1;81
6;0;2;3;0;2;80
7;0;3;1;0;1;81
8;0;2;1;0;1;80
9;0;1;3;0;2;81
10;0;3;1;0;1;81
11;1;2;0;0;2;80
12;0;0;3;0;2;81
13;0;3;1;0;1;81
14;1;1;0;0;1;81
15;0;0;1;0;1;81
16;0;1;3;0;2;81
17;0;3;1;0;1;81
18;1;1;0;0;2;81
19;0;0;3;0;2;81
20;0;3;1;0;1;81
