Time;emergency mode;the indication lights;the mode;the timer;the turn indicator lever;the voltage
0;0;2;2;1;0;0
1;0;2;3;0;2;80
2;0;2;3;1;0;80
3;1;3;0;0;0;81
4;1;2;0;0;0;80
5;1;2;0;1;0;80
6;0;2;3;0;2;80
7;0;2;3;1;0;80
8;0;3;1;0;1;81
9;0;1;3;0;2;81
10;1;3;0;0;0;81
11;0;0;0;0;0;81
12;0;0;0;1;0;81
13;0;0;0;2;0;81
14;0;2;3;0;2;80
15;0;2;3;1;2;80
16;0;2;3;2;2;80
17;0;2;3;3;2;80
18;0;2;3;4;2;80
19;0;2;3;5;2;80
