Time;emergency mode;the indication lights;the mode;the timer;the turn indicator lever;the voltage
0;0;2;2;1;0;0
1;1;2;0;0;2;80
2;0;2;3;0;2;80
3;1;3;0;0;0;81
4;1;0;3;0;2;81
5;1;3;0;0;0;81
6;0;2;3;0;2;80
7;1;2;0;0;0;80
8;1;0;1;0;1;81
9;1;2;0;0;0;80
10;0;0;3;0;2;81
11;0;3;3;0;0;81
12;0;2;3;0;0;80
13;0;3;1;0;1;81
14;1;2;0;0;0;80
15;0;0;0;0;0;81
16;0;2;0;0;0;80
17;0;0;0;0;0;81
18;0;2;0;0;0;80
19;0;0;0;0;0;81
20;0;0;0;1;0;81
