Time;emergency mode;the indication lights;the mode;the timer;the turn indicator lever;the voltage
0;0;2;2;1;0;0
1;0;2;3;0;2;81
2;1;3;0;0;0;81
3;0;2;1;0;1;80
4;0;2;1;1;1;80
5;0;2;1;2;1;80
6;0;2;1;3;1;80
7;0;2;1;4;0;80
8;0;2;1;5;0;80
9;0;2;1;6;0;80
10;0;2;1;7;0;80
11;0;2;1;8;0;80
12;0;2;1;9;0;80
13;0;2;1;10;0;80
14;0;2;1;11;0;80
15;0;2;1;12;0;80
16;0;2;1;13;0;80
17;0;2;1;14;0;80
18;0;2;1;15;0;80
19;0;2;1;16;0;80
20;0;2;1;17;0;80
21;0;2;1;18;0;80
22;0;2;1;19;0;80
23;0;2;1;20;0;80
24;0;2;1;21;0;80
25;0;2;1;22;0;80
26;0;2;1;23;0;80
27;0;2;1;24;0;80
28;0;2;1;25;0;80
29;0;2;1;26;0;80
30;0;2;1;27;0;80
31;0;2;1;28;0;80
32;0;2;1;29;0;80
33;0;2;1;30;0;80
34;0;2;1;31;0;80
35;0;2;1;32;0;80
36;0;2;1;33;0;80
37;0;2;1;34;0;80
38;0;2;1;35;0;80
39;0;2;1;36;0;80
40;0;2;1;37;0;80
41;0;2;1;38;0;80
42;0;2;1;39;0;80
43;0;2;1;40;0;80
44;0;2;1;41;0;80
45;0;2;1;42;0;80
46;0;2;1;43;0;80
47;0;2;1;44;0;80
48;0;2;1;45;0;80
49;0;2;1;46;0;80
50;0;2;1;47;0;80
51;0;2;1;48;0;80
52;0;2;1;49;0;80
53;0;2;1;50;0;80
54;0;2;1;0;1;80
55;1;2;0;0;0;80
56;0;2;0;1;0;80
57;0;2;0;2;0;80
58;0;2;0;3;0;80
59;0;2;3;0;2;80
60;0;2;1;0;1;80
61;0;2;1;1;0;80
62;1;2;0;0;1;80
63;0;2;3;0;2;80
64;1;2;0;0;2;80
65;1;2;0;1;2;80
66;0;0;3;0;2;81
67;0;3;1;0;1;81
68;1;1;0;0;1;81
69;0;0;1;0;1;81
