Time;emergency mode;the indication lights;the mode;the timer;the turn indicator lever;the voltage
0;0;2;2;1;0;0
1;1;2;0;0;2;80
2;0;2;0;1;0;80
3;0;0;3;0;2;81
4;1;2;0;0;0;80
5;1;0;0;0;0;81
6;0;0;0;1;0;81
7;0;0;0;2;0;81
8;0;2;0;0;0;80
9;0;2;0;1;0;80
10;1;0;0;0;1;81
11;0;2;1;0;1;80
12;0;1;1;0;1;81
13;0;2;1;0;0;80
14;0;2;3;0;2;80
15;0;2;3;1;2;80
16;0;3;3;0;0;81
17;0;3;3;0;2;81
18;1;3;0;0;0;81
19;0;2;3;0;2;80
20;0;2;3;1;0;80
