Time;emergency mode;the indication lights;the mode;the timer;the turn indicator lever;the voltage
0;0;2;2;1;0;0
1;0;2;2;2;0;80
2;0;2;1;0;1;81
3;1;1;0;0;0;81
4;1;2;0;0;0;79
5;0;2;3;0;2;79
6;0;2;3;1;2;80
7;1;3;0;0;0;81
8;0;0;0;0;0;81
9;0;2;0;0;0;79
10;0;0;3;0;2;81
11;0;3;1;0;1;81
12;0;1;3;0;2;81
13;1;3;0;0;0;81
14;0;2;1;0;1;79
15;0;1;3;0;2;81
16;1;3;0;0;0;81
17;0;0;1;0;1;81
18;0;1;3;0;2;81
19;0;3;1;0;1;81
