Time;emergency mode;the indication lights;the mode;the timer;the turn indicator lever;the voltage
0;0;2;2;1;0;0
1;1;2;0;0;2;81
2;0;0;0;0;0;81
3;0;0;0;1;0;81
4;0;0;0;2;0;100
5;0;0;3;0;2;81
6;0;3;1;0;1;81
7;0;2;1;0;1;80
8;0;1;1;0;0;81
9;1;2;0;0;2;80
10;0;0;3;0;2;81
11;0;3;1;0;1;81
12;0;1;1;0;0;100
13;0;1;1;0;1;81
14;0;1;3;0;2;81
15;0;3;1;0;1;81
16;0;1;1;0;0;81
17;0;2;1;0;0;80
18;1;1;0;0;0;81
19;0;0;0;0;0;81
