Time;emergency mode;the indication lights;the mode;the timer;the turn indicator lever;the voltage
0;0;2;2;1;0;0
1;1;2;0;0;1;81
2;1;2;3;0;2;80
3;0;3;1;0;1;81
4;1;1;0;0;0;81
5;0;0;1;0;1;81
6;0;2;3;0;2;80
7;0;3;1;0;1;81
8;0;1;1;0;1;81
9;0;2;3;0;2;80
10;0;3;3;0;2;81
11;1;2;0;0;0;80
12;0;2;0;1;0;80
13;0;0;0;0;0;81
14;0;2;0;0;0;80
15;1;0;0;0;0;81
16;1;0;0;1;0;81
17;1;0;3;0;2;81
18;0;3;3;0;0;81
