Time;emergency mode;the indication lights;the mode;the timer;the turn indicator lever;the voltage
0;0;2;2;1;0;0
1;1;2;0;0;0;80
2;1;0;3;0;2;81
3;1;3;0;0;0;81
4;1;2;1;0;1;80
5;0;2;1;1;1;80
6;0;2;1;2;1;80
7;0;2;1;3;0;80
8;0;2;1;4;0;80
9;0;2;1;5;0;80
10;0;2;1;6;0;80
11;0;2;1;7;0;80
12;0;2;1;8;0;80
13;0;2;1;9;0;80
14;0;2;1;10;0;80
15;0;2;1;11;0;80
16;0;2;1;12;0;80
17;0;2;1;13;0;80
18;0;2;1;14;0;80
19;0;2;1;15;0;80
20;0;2;1;16;0;80
21;0;2;1;17;0;80
22;0;2;1;18;0;80
23;0;2;1;19;0;80
24;0;2;1;20;0;80
25;0;2;1;21;0;80
26;0;2;1;22;0;80
27;0;1;1;0;1;81
28;0;1;1;1;0;81
29;0;1;1;0;1;81
30;0;1;1;1;1;81
31;0;1;3;0;2;81
32;0;3;1;0;1;81
33;0;1;3;0;2;81
34;0;3;1;0;1;81
35;1;1;0;0;2;81
36;0;0;3;0;2;81
37;0;3;1;0;1;81
38;1;1;0;0;1;81
39;0;0;1;0;1;81
40;1;1;0;0;1;81
41;0;0;3;0;2;81
42;1;3;0;0;1;81
