Time;emergency mode;the indication lights;the mode;the timer;the turn indicator lever;the voltage
0;0;2;2;1;0;0
1;0;2;3;0;2;81
2;1;3;0;0;2;81
3;0;0;0;0;0;81
4;1;0;0;0;1;81
5;1;0;3;0;2;81
6;0;3;3;0;2;81
7;1;3;0;0;2;81
8;0;0;1;0;1;81
9;1;1;0;0;1;81
10;1;0;0;0;1;81
11;0;2;1;0;1;80
12;0;1;3;0;2;81
13;0;3;1;0;1;81
14;0;2;3;0;2;80
15;1;3;0;0;0;81
16;0;0;3;0;2;81
17;1;3;0;0;0;81
