Time;emergency mode;the indication lights;the mode;the timer;the turn indicator lever;the voltage
0;0;2;2;1;0;0
1;1;2;0;0;0;81
2;0;0;0;0;0;81
3;0;2;3;0;2;80
4;0;2;3;1;2;80
5;0;2;3;2;2;80
6;0;2;3;3;2;80
7;0;2;3;4;2;80
8;0;2;3;5;2;80
9;0;2;3;6;2;80
10;0;2;3;7;2;80
11;0;2;3;8;2;80
12;0;2;3;9;2;80
13;0;2;3;10;2;80
14;0;2;3;11;2;80
15;0;2;3;12;2;80
16;0;2;3;13;2;80
17;0;2;3;14;2;80
18;0;2;3;15;2;80
19;0;2;3;16;2;80
20;0;2;3;17;2;80
21;0;2;3;18;2;80
22;0;2;3;19;2;80
23;0;2;3;20;2;80
24;0;2;3;21;2;80
25;0;2;3;22;2;80
26;0;2;3;23;2;80
27;0;2;3;24;2;80
28;0;2;3;25;2;80
29;0;2;3;26;2;80
30;0;2;3;27;2;80
31;0;2;3;28;2;80
32;0;2;3;29;2;80
33;0;2;3;30;2;80
34;0;2;3;31;2;80
35;0;2;3;32;2;80
36;0;2;3;33;2;80
37;0;2;3;34;2;80
38;0;2;3;35;2;80
39;0;2;3;36;2;80
40;0;2;3;37;2;80
41;0;2;3;38;2;80
42;0;2;3;39;2;80
43;0;2;3;40;2;80
44;0;2;3;41;2;80
45;0;2;3;42;2;80
46;0;2;3;43;2;80
47;0;2;3;44;2;80
48;0;2;3;45;2;80
49;0;2;3;46;2;80
50;0;2;3;47;2;80
51;0;2;3;48;2;80
52;0;2;3;49;2;80
53;0;2;3;50;0;80
54;0;3;1;0;1;100
55;1;1;0;0;0;81
56;1;0;1;0;1;81
57;1;1;3;0;2;81
58;1;3;1;0;1;81
59;1;1;3;0;2;81
60;0;2;3;0;0;80
61;0;3;3;0;2;81
62;0;2;1;0;1;80
63;0;1;3;0;2;81
64;1;2;0;0;0;80
65;0;0;1;0;1;81
66;1;2;0;0;2;80
67;0;0;3;0;2;81
68;0;3;3;0;0;81
69;0;3;3;0;2;81
